%!PS-Adobe-3.0 EPSF-3.0
%%Title: ./pulso_osciloscope.eps
%%Creator: matplotlib version 1.5.1, http://matplotlib.org/
%%CreationDate: Tue Apr 12 21:21:23 2016
%%Orientation: portrait
%%BoundingBox: -77 173 689 618
%%EndComments
%%BeginProlog
/mpldict 9 dict def
mpldict begin
/m { moveto } bind def
/l { lineto } bind def
/r { rlineto } bind def
/c { curveto } bind def
/cl { closepath } bind def
/box {
m
1 index 0 r
0 exch r
neg 0 r
cl
} bind def
/clipbox {
box
clip
newpath
} bind def
%!PS-Adobe-3.0 Resource-Font
%%Title: cmmi10
%%Copyright: Copyright (C) 1994, Basil K. Malyshev. All Rights Reserved.012BaKoMa Fonts Collection, Level-B.
%%Creator: Converted from TrueType to type 3 by PPR
25 dict begin
/_d{bind def}bind def
/_m{moveto}_d
/_l{lineto}_d
/_cl{closepath eofill}_d
/_c{curveto}_d
/_sc{7 -1 roll{setcachedevice}{pop pop pop pop pop pop}ifelse}_d
/_e{exec}_d
/FontName /Cmmi10 def
/PaintType 0 def
/FontMatrix[.001 0 0 .001 0 0]def
/FontBBox[-34 -250 1048 750]def
/FontType 3 def
/Encoding [ /mu /s /V ] def
/FontInfo 10 dict dup begin
/FamilyName (cmmi10) def
/FullName (cmmi10) def
/Notice (Copyright (C) 1994, Basil K. Malyshev. All Rights Reserved.012BaKoMa Fonts Collection, Level-B. ) def
/Weight (Regular) def
/Version (1.1/12-Nov-94) def
/ItalicAngle 0.0 def
/isFixedPitch false def
/UnderlinePosition -133 def
/UnderlineThickness 20 def
end readonly def
/CharStrings 3 dict dup begin
/mu{{602 0 28 -215 575 442 _sc
28 -187 _m
28 -183 28 -180 29 -179 _c
176 410 _l
178 419 183 427 191 433 _c
199 439 208 442 218 442 _c
226 442 233 439 239 434 _c
245 429 248 422 248 414 _c
248 412 248 410 248 409 _c
248 408 247 407 247 406 _c
188 172 _l
181 144 178 120 178 100 _c
178 75 183 55 195 39 _c
207 23 225 15 249 15 _c
297 15 340 45 377 106 _c
}_e{377 106 377 107 377 107 _c
377 107 378 108 378 109 _c
450 399 _l
452 407 458 415 466 421 _c
474 427 482 431 492 431 _c
500 431 507 428 513 423 _c
519 418 522 411 522 403 _c
522 399 521 396 521 395 _c
449 107 _l
444 88 442 72 442 58 _c
442 29 451 15 471 15 _c
491 15 507 27 518 53 _c
528 79 538 110 546 147 _c
547 151 550 153 554 153 _c
566 153 _l
}_e{568 153 570 151 572 149 _c
574 147 575 145 575 143 _c
563 96 551 59 537 31 _c
523 3 500 -10 469 -10 _c
447 -10 427 -4 410 8 _c
393 20 382 37 377 59 _c
360 38 340 21 318 9 _c
296 -3 272 -10 248 -10 _c
206 -10 174 0 150 18 _c
99 -183 _l
97 -192 92 -200 84 -206 _c
76 -212 68 -215 58 -215 _c
50 -215 43 -212 37 -207 _c
31 -202 28 -195 28 -187 _c
_cl}_e}_d
/s{{468 0 52 -10 419 442 _sc
87 61 _m
105 30 141 15 195 15 _c
218 15 240 19 261 27 _c
282 35 300 47 314 63 _c
328 79 335 98 335 121 _c
335 138 328 152 316 163 _c
304 174 289 182 271 186 _c
217 197 _l
192 203 172 214 156 231 _c
140 248 132 269 132 293 _c
132 322 140 348 156 371 _c
172 394 193 412 219 424 _c
245 436 273 442 302 442 _c
332 442 359 434 383 420 _c
}_e{407 405 419 384 419 356 _c
419 340 414 327 406 315 _c
397 303 385 298 370 298 _c
361 298 353 300 347 306 _c
341 312 338 319 338 328 _c
338 336 340 343 344 351 _c
348 358 354 364 362 368 _c
369 372 377 375 385 375 _c
379 389 368 399 352 406 _c
336 412 318 416 300 416 _c
282 416 265 412 249 406 _c
232 399 218 389 208 376 _c
198 362 193 347 193 329 _c
}_e{193 317 197 306 205 297 _c
213 288 224 282 237 278 _c
295 266 _l
313 262 330 255 346 245 _c
361 235 373 222 382 207 _c
391 192 396 175 396 156 _c
396 131 389 106 375 82 _c
361 58 344 39 324 25 _c
288 1 245 -10 194 -10 _c
158 -10 126 -2 96 14 _c
66 30 52 54 52 86 _c
52 104 57 119 67 133 _c
77 147 92 154 111 154 _c
121 154 130 150 138 144 _c
}_e{145 137 149 128 149 118 _c
149 102 143 89 132 78 _c
120 66 107 61 92 61 _c
87 61 _l
_cl}_e}_d
/V{{583 0 55 -21 769 683 _sc
220 -10 _m
140 626 _l
135 640 110 648 65 648 _c
58 648 55 652 55 661 _c
56 668 58 673 60 677 _c
62 681 66 683 72 683 _c
316 683 _l
319 683 321 681 323 679 _c
325 676 326 673 326 670 _c
323 655 319 648 313 648 _c
261 648 233 639 230 621 _c
296 98 _l
604 590 _l
610 600 613 609 613 616 _c
613 628 607 636 597 641 _c
586 645 574 648 560 648 _c
}_e{553 648 550 652 550 661 _c
551 666 552 670 553 673 _c
554 676 556 678 558 680 _c
560 682 563 683 567 683 _c
760 683 _l
766 683 769 678 769 670 _c
766 655 762 648 756 648 _c
706 648 666 626 638 582 _c
636 580 635 580 635 580 _c
266 -10 _l
261 -17 255 -21 247 -21 _c
233 -21 _l
225 -21 221 -17 220 -10 _c
_cl}_e}_d
end readonly def

/BuildGlyph
 {exch begin
 CharStrings exch
 2 copy known not{pop /.notdef}if
 true 3 1 roll get exec
 end}_d

/BuildChar {
 1 index /Encoding get exch get
 1 index /BuildGlyph get exec
}_d

FontName currentdict end definefont pop
%!PS-Adobe-3.0 Resource-Font
%%Title: Bitstream Vera Sans
%%Copyright: Copyright (c) 2003 by Bitstream, Inc. All Rights Reserved.
%%Creator: Converted from TrueType to type 3 by PPR
25 dict begin
/_d{bind def}bind def
/_m{moveto}_d
/_l{lineto}_d
/_cl{closepath eofill}_d
/_c{curveto}_d
/_sc{7 -1 roll{setcachedevice}{pop pop pop pop pop pop}ifelse}_d
/_e{exec}_d
/FontName /BitstreamVeraSans-Roman def
/PaintType 0 def
/FontMatrix[.001 0 0 .001 0 0]def
/FontBBox[-183 -236 1287 928]def
/FontType 3 def
/Encoding [ /space /zero /one /two /three /four /six /A /B /P /T /bracketleft /bracketright /a /c /d /e /f /i /l /m /o /p /s /t /u /aacute /acute /minus ] def
/FontInfo 10 dict dup begin
/FamilyName (Bitstream Vera Sans) def
/FullName (Bitstream Vera Sans) def
/Notice (Copyright (c) 2003 by Bitstream, Inc. All Rights Reserved. Bitstream Vera is a trademark of Bitstream, Inc.) def
/Weight (Roman) def
/Version (Release 1.10) def
/ItalicAngle 0.0 def
/isFixedPitch false def
/UnderlinePosition -213 def
/UnderlineThickness 143 def
end readonly def
/CharStrings 29 dict dup begin
/space{318 0 0 0 0 0 _sc
}_d
/zero{636 0 66 -13 570 742 _sc
318 664 _m
267 664 229 639 203 589 _c
177 539 165 464 165 364 _c
165 264 177 189 203 139 _c
229 89 267 64 318 64 _c
369 64 407 89 433 139 _c
458 189 471 264 471 364 _c
471 464 458 539 433 589 _c
407 639 369 664 318 664 _c
318 742 _m
399 742 461 709 505 645 _c
548 580 570 486 570 364 _c
570 241 548 147 505 83 _c
461 19 399 -13 318 -13 _c
236 -13 173 19 130 83 _c
87 147 66 241 66 364 _c
66 486 87 580 130 645 _c
173 709 236 742 318 742 _c
_cl}_d
/one{636 0 110 0 544 729 _sc
124 83 _m
285 83 _l
285 639 _l
110 604 _l
110 694 _l
284 729 _l
383 729 _l
383 83 _l
544 83 _l
544 0 _l
124 0 _l
124 83 _l
_cl}_d
/two{{636 0 73 0 536 742 _sc
192 83 _m
536 83 _l
536 0 _l
73 0 _l
73 83 _l
110 121 161 173 226 239 _c
290 304 331 346 348 365 _c
380 400 402 430 414 455 _c
426 479 433 504 433 528 _c
433 566 419 598 392 622 _c
365 646 330 659 286 659 _c
255 659 222 653 188 643 _c
154 632 117 616 78 594 _c
78 694 _l
118 710 155 722 189 730 _c
223 738 255 742 284 742 _c
}_e{359 742 419 723 464 685 _c
509 647 532 597 532 534 _c
532 504 526 475 515 449 _c
504 422 484 390 454 354 _c
446 344 420 317 376 272 _c
332 227 271 164 192 83 _c
_cl}_e}_d
/three{{636 0 76 -13 556 742 _sc
406 393 _m
453 383 490 362 516 330 _c
542 298 556 258 556 212 _c
556 140 531 84 482 45 _c
432 6 362 -13 271 -13 _c
240 -13 208 -10 176 -4 _c
144 1 110 10 76 22 _c
76 117 _l
103 101 133 89 166 81 _c
198 73 232 69 268 69 _c
330 69 377 81 409 105 _c
441 129 458 165 458 212 _c
458 254 443 288 413 312 _c
383 336 341 349 287 349 _c
}_e{202 349 _l
202 430 _l
291 430 _l
339 430 376 439 402 459 _c
428 478 441 506 441 543 _c
441 580 427 609 401 629 _c
374 649 336 659 287 659 _c
260 659 231 656 200 650 _c
169 644 135 635 98 623 _c
98 711 _l
135 721 170 729 203 734 _c
235 739 266 742 296 742 _c
370 742 429 725 473 691 _c
517 657 539 611 539 553 _c
539 513 527 479 504 451 _c
481 423 448 403 406 393 _c
_cl}_e}_d
/four{636 0 49 0 580 729 _sc
378 643 _m
129 254 _l
378 254 _l
378 643 _l
352 729 _m
476 729 _l
476 254 _l
580 254 _l
580 172 _l
476 172 _l
476 0 _l
378 0 _l
378 172 _l
49 172 _l
49 267 _l
352 729 _l
_cl}_d
/six{{636 0 70 -13 573 742 _sc
330 404 _m
286 404 251 388 225 358 _c
199 328 186 286 186 234 _c
186 181 199 139 225 109 _c
251 79 286 64 330 64 _c
374 64 409 79 435 109 _c
461 139 474 181 474 234 _c
474 286 461 328 435 358 _c
409 388 374 404 330 404 _c
526 713 _m
526 623 _l
501 635 476 644 451 650 _c
425 656 400 659 376 659 _c
310 659 260 637 226 593 _c
}_e{192 549 172 482 168 394 _c
187 422 211 444 240 459 _c
269 474 301 482 336 482 _c
409 482 467 459 509 415 _c
551 371 573 310 573 234 _c
573 159 550 99 506 54 _c
462 9 403 -13 330 -13 _c
246 -13 181 19 137 83 _c
92 147 70 241 70 364 _c
70 479 97 571 152 639 _c
206 707 280 742 372 742 _c
396 742 421 739 447 735 _c
472 730 498 723 526 713 _c
_cl}_e}_d
/A{684 0 8 0 676 729 _sc
342 632 _m
208 269 _l
476 269 _l
342 632 _l
286 729 _m
398 729 _l
676 0 _l
573 0 _l
507 187 _l
178 187 _l
112 0 _l
8 0 _l
286 729 _l
_cl}_d
/B{{686 0 98 0 615 729 _sc
197 348 _m
197 81 _l
355 81 _l
408 81 447 92 473 114 _c
498 136 511 169 511 215 _c
511 260 498 293 473 315 _c
447 337 408 348 355 348 _c
197 348 _l
197 648 _m
197 428 _l
343 428 _l
391 428 426 437 450 455 _c
474 473 486 500 486 538 _c
486 574 474 602 450 620 _c
426 638 391 648 343 648 _c
197 648 _l
98 729 _m
350 729 _l
}_e{425 729 483 713 524 682 _c
564 650 585 606 585 549 _c
585 504 574 468 553 442 _c
532 416 502 399 462 393 _c
510 382 548 360 575 327 _c
601 294 615 253 615 204 _c
615 138 592 88 548 53 _c
504 17 441 0 360 0 _c
98 0 _l
98 729 _l
_cl}_e}_d
/P{603 0 98 0 569 729 _sc
197 648 _m
197 374 _l
321 374 _l
367 374 402 385 427 409 _c
452 433 465 467 465 511 _c
465 555 452 588 427 612 _c
402 636 367 648 321 648 _c
197 648 _l
98 729 _m
321 729 _l
402 729 464 710 506 673 _c
548 636 569 582 569 511 _c
569 439 548 384 506 348 _c
464 311 402 293 321 293 _c
197 293 _l
197 0 _l
98 0 _l
98 729 _l
_cl}_d
/T{611 0 -2 0 614 729 _sc
-2 729 _m
614 729 _l
614 646 _l
355 646 _l
355 0 _l
256 0 _l
256 646 _l
-2 646 _l
-2 729 _l
_cl}_d
/bracketleft{390 0 86 -131 293 760 _sc
86 760 _m
293 760 _l
293 690 _l
176 690 _l
176 -61 _l
293 -61 _l
293 -131 _l
86 -131 _l
86 760 _l
_cl}_d
/bracketright{390 0 97 -131 304 760 _sc
304 760 _m
304 -131 _l
97 -131 _l
97 -61 _l
214 -61 _l
214 690 _l
97 690 _l
97 760 _l
304 760 _l
_cl}_d
/a{{613 0 60 -13 522 560 _sc
343 275 _m
270 275 220 266 192 250 _c
164 233 150 205 150 165 _c
150 133 160 107 181 89 _c
202 70 231 61 267 61 _c
317 61 357 78 387 114 _c
417 149 432 196 432 255 _c
432 275 _l
343 275 _l
522 312 _m
522 0 _l
432 0 _l
432 83 _l
411 49 385 25 355 10 _c
325 -5 287 -13 243 -13 _c
187 -13 142 2 109 33 _c
76 64 60 106 60 159 _c
}_e{60 220 80 266 122 298 _c
163 329 224 345 306 345 _c
432 345 _l
432 354 _l
432 395 418 427 391 450 _c
364 472 326 484 277 484 _c
245 484 215 480 185 472 _c
155 464 127 453 100 439 _c
100 522 _l
132 534 164 544 195 550 _c
226 556 256 560 286 560 _c
365 560 424 539 463 498 _c
502 457 522 395 522 312 _c
_cl}_e}_d
/c{{550 0 55 -13 488 560 _sc
488 526 _m
488 442 _l
462 456 437 466 411 473 _c
385 480 360 484 334 484 _c
276 484 230 465 198 428 _c
166 391 150 339 150 273 _c
150 206 166 154 198 117 _c
230 80 276 62 334 62 _c
360 62 385 65 411 72 _c
437 79 462 90 488 104 _c
488 21 _l
462 9 436 0 410 -5 _c
383 -10 354 -13 324 -13 _c
242 -13 176 12 128 64 _c
}_e{79 115 55 185 55 273 _c
55 362 79 432 128 483 _c
177 534 244 560 330 560 _c
358 560 385 557 411 551 _c
437 545 463 537 488 526 _c
_cl}_e}_d
/d{{635 0 55 -13 544 760 _sc
454 464 _m
454 760 _l
544 760 _l
544 0 _l
454 0 _l
454 82 _l
435 49 411 25 382 10 _c
353 -5 319 -13 279 -13 _c
213 -13 159 13 117 65 _c
75 117 55 187 55 273 _c
55 359 75 428 117 481 _c
159 533 213 560 279 560 _c
319 560 353 552 382 536 _c
411 520 435 496 454 464 _c
148 273 _m
148 207 161 155 188 117 _c
215 79 253 61 301 61 _c
}_e{348 61 385 79 413 117 _c
440 155 454 207 454 273 _c
454 339 440 390 413 428 _c
385 466 348 485 301 485 _c
253 485 215 466 188 428 _c
161 390 148 339 148 273 _c
_cl}_e}_d
/e{{615 0 55 -13 562 560 _sc
562 296 _m
562 252 _l
149 252 _l
153 190 171 142 205 110 _c
238 78 284 62 344 62 _c
378 62 412 66 444 74 _c
476 82 509 95 541 113 _c
541 28 _l
509 14 476 3 442 -3 _c
408 -9 373 -13 339 -13 _c
251 -13 182 12 131 62 _c
80 112 55 181 55 268 _c
55 357 79 428 127 481 _c
175 533 241 560 323 560 _c
397 560 455 536 498 489 _c
}_e{540 441 562 377 562 296 _c
472 322 _m
471 371 457 410 431 440 _c
404 469 368 484 324 484 _c
274 484 234 469 204 441 _c
174 413 156 373 152 322 _c
472 322 _l
_cl}_e}_d
/f{352 0 23 0 371 760 _sc
371 760 _m
371 685 _l
285 685 _l
253 685 230 678 218 665 _c
205 652 199 629 199 595 _c
199 547 _l
347 547 _l
347 477 _l
199 477 _l
199 0 _l
109 0 _l
109 477 _l
23 477 _l
23 547 _l
109 547 _l
109 585 _l
109 645 123 690 151 718 _c
179 746 224 760 286 760 _c
371 760 _l
_cl}_d
/i{278 0 94 0 184 760 _sc
94 547 _m
184 547 _l
184 0 _l
94 0 _l
94 547 _l
94 760 _m
184 760 _l
184 646 _l
94 646 _l
94 760 _l
_cl}_d
/l{278 0 94 0 184 760 _sc
94 760 _m
184 760 _l
184 0 _l
94 0 _l
94 760 _l
_cl}_d
/m{{974 0 91 0 889 560 _sc
520 442 _m
542 482 569 511 600 531 _c
631 550 668 560 711 560 _c
767 560 811 540 842 500 _c
873 460 889 403 889 330 _c
889 0 _l
799 0 _l
799 327 _l
799 379 789 418 771 444 _c
752 469 724 482 686 482 _c
639 482 602 466 575 435 _c
548 404 535 362 535 309 _c
535 0 _l
445 0 _l
445 327 _l
445 379 435 418 417 444 _c
398 469 369 482 331 482 _c
}_e{285 482 248 466 221 435 _c
194 404 181 362 181 309 _c
181 0 _l
91 0 _l
91 547 _l
181 547 _l
181 462 _l
201 495 226 520 255 536 _c
283 552 317 560 357 560 _c
397 560 430 550 458 530 _c
486 510 506 480 520 442 _c
_cl}_e}_d
/o{612 0 55 -13 557 560 _sc
306 484 _m
258 484 220 465 192 427 _c
164 389 150 338 150 273 _c
150 207 163 156 191 118 _c
219 80 257 62 306 62 _c
354 62 392 80 420 118 _c
448 156 462 207 462 273 _c
462 337 448 389 420 427 _c
392 465 354 484 306 484 _c
306 560 _m
384 560 445 534 490 484 _c
534 433 557 363 557 273 _c
557 183 534 113 490 63 _c
445 12 384 -13 306 -13 _c
227 -13 165 12 121 63 _c
77 113 55 183 55 273 _c
55 363 77 433 121 484 _c
165 534 227 560 306 560 _c
_cl}_d
/p{{635 0 91 -207 580 560 _sc
181 82 _m
181 -207 _l
91 -207 _l
91 547 _l
181 547 _l
181 464 _l
199 496 223 520 252 536 _c
281 552 316 560 356 560 _c
422 560 476 533 518 481 _c
559 428 580 359 580 273 _c
580 187 559 117 518 65 _c
476 13 422 -13 356 -13 _c
316 -13 281 -5 252 10 _c
223 25 199 49 181 82 _c
487 273 _m
487 339 473 390 446 428 _c
418 466 381 485 334 485 _c
}_e{286 485 249 466 222 428 _c
194 390 181 339 181 273 _c
181 207 194 155 222 117 _c
249 79 286 61 334 61 _c
381 61 418 79 446 117 _c
473 155 487 207 487 273 _c
_cl}_e}_d
/s{{521 0 54 -13 472 560 _sc
443 531 _m
443 446 _l
417 458 391 468 364 475 _c
336 481 308 485 279 485 _c
234 485 200 478 178 464 _c
156 450 145 430 145 403 _c
145 382 153 366 169 354 _c
185 342 217 330 265 320 _c
296 313 _l
360 299 405 279 432 255 _c
458 230 472 195 472 151 _c
472 100 452 60 412 31 _c
372 1 316 -13 246 -13 _c
216 -13 186 -10 154 -5 _c
}_e{122 0 89 8 54 20 _c
54 113 _l
87 95 120 82 152 74 _c
184 65 216 61 248 61 _c
290 61 323 68 346 82 _c
368 96 380 117 380 144 _c
380 168 371 187 355 200 _c
339 213 303 226 247 238 _c
216 245 _l
160 257 119 275 95 299 _c
70 323 58 356 58 399 _c
58 450 76 490 112 518 _c
148 546 200 560 268 560 _c
301 560 332 557 362 552 _c
391 547 418 540 443 531 _c
}_e{_cl}_e}_d
/t{392 0 27 0 368 702 _sc
183 702 _m
183 547 _l
368 547 _l
368 477 _l
183 477 _l
183 180 _l
183 135 189 106 201 94 _c
213 81 238 75 276 75 _c
368 75 _l
368 0 _l
276 0 _l
206 0 158 13 132 39 _c
106 65 93 112 93 180 _c
93 477 _l
27 477 _l
27 547 _l
93 547 _l
93 702 _l
183 702 _l
_cl}_d
/u{634 0 85 -13 543 547 _sc
85 216 _m
85 547 _l
175 547 _l
175 219 _l
175 167 185 129 205 103 _c
225 77 255 64 296 64 _c
344 64 383 79 411 110 _c
439 141 453 183 453 237 _c
453 547 _l
543 547 _l
543 0 _l
453 0 _l
453 84 _l
431 50 405 26 377 10 _c
348 -5 315 -13 277 -13 _c
214 -13 166 6 134 45 _c
101 83 85 140 85 216 _c
_cl}_d
/aacute{613 0 60 -13 522 800 _sc
false CharStrings /a get exec
gsave 40 0 translate
false CharStrings /acute get exec
grestore }_d
/acute{500 0 181 616 415 800 _sc
318 800 _m
415 800 _l
256 616 _l
181 616 _l
318 800 _l
_cl}_d
/minus{838 0 106 272 732 355 _sc
106 355 _m
732 355 _l
732 272 _l
106 272 _l
106 355 _l
_cl}_d
end readonly def

/BuildGlyph
 {exch begin
 CharStrings exch
 2 copy known not{pop /.notdef}if
 true 3 1 roll get exec
 end}_d

/BuildChar {
 1 index /Encoding get exch get
 1 index /BuildGlyph get exec
}_d

FontName currentdict end definefont pop
end
%%EndProlog
mpldict begin
-77.82 173.867 translate
767.641 444.266 0 0 clipbox
100000 setmiterlimit
gsave
0 0 m
767.640625 0 l
767.640625 444.265625 l
0 444.265625 l
cl
1.000 setgray
fill
grestore
gsave
90.840625 64.434375 m
760.440625 64.434375 l
760.440625 410.034375 l
90.840625 410.034375 l
cl
1.000 setgray
fill
grestore
1.000 setlinewidth
1 setlinejoin
2 setlinecap
[] 0 setdash
0.000 0.000 1.000 setrgbcolor
gsave
669.6 345.6 90.84 64.43 clipbox
90.840625 237.234375 m
91.958488 237.234375 l
93.076351 237.234375 l
94.194214 238.962375 l
95.312077 237.234375 l
102.019256 237.234375 l
103.137119 238.962375 l
104.254982 237.234375 l
124.376518 237.234375 l
125.494381 238.962375 l
126.612244 237.234375 l
128.847971 237.234375 l
129.965834 238.962375 l
131.083697 237.234375 l
147.851643 237.234375 l
148.969506 235.506375 l
150.08737 238.962375 l
151.205233 237.234375 l
164.61959 237.234375 l
165.737453 238.962375 l
166.855316 237.234375 l
167.973179 238.962375 l
169.091042 237.234375 l
173.562495 237.234375 l
174.680358 238.962375 l
175.798221 237.234375 l
176.916084 237.234375 l
178.033947 238.962375 l
179.15181 237.234375 l
180.269673 237.234375 l
181.387537 235.506375 l
182.5054 237.234375 l
191.448304 237.234375 l
192.566168 235.506375 l
193.684031 237.234375 l
204.862662 237.234375 l
205.980525 238.962375 l
207.098388 237.234375 l
209.334114 237.234375 l
210.451977 238.962375 l
211.56984 237.234375 l
220.512745 237.234375 l
221.630608 238.962375 l
222.748471 237.234375 l
224.984198 237.234375 l
226.102061 238.962375 l
227.219924 237.234375 l
228.337787 237.234375 l
229.45565 235.506375 l
230.573513 237.234375 l
233.927102 237.234375 l
235.044966 238.962375 l
236.162829 237.234375 l
255.166501 237.234375 l
256.284365 235.506375 l
257.402228 389.298375 l
258.520091 387.570375 l
259.637954 382.386375 l
260.755817 382.386375 l
261.87368 385.842375 l
262.991543 382.386375 l
264.109406 384.114375 l
265.227269 384.114375 l
266.345133 382.386375 l
267.462996 382.386375 l
268.580859 380.658375 l
269.698722 382.386375 l
276.4059 382.386375 l
277.523764 380.658375 l
278.641627 382.386375 l
280.877353 382.386375 l
281.995216 380.658375 l
283.113079 382.386375 l
284.230942 380.658375 l
285.348805 382.386375 l
286.466668 380.658375 l
287.584532 382.386375 l
288.702395 380.658375 l
289.820258 382.386375 l
290.938121 380.658375 l
292.055984 382.386375 l
293.173847 380.658375 l
294.29171 382.386375 l
295.409573 380.658375 l
296.527436 380.658375 l
297.645299 382.386375 l
298.763163 382.386375 l
299.881026 380.658375 l
300.998889 380.658375 l
302.116752 382.386375 l
303.234615 382.386375 l
304.352478 380.658375 l
305.470341 382.386375 l
306.588204 378.930375 l
307.706067 382.386375 l
308.823931 378.930375 l
309.941794 382.386375 l
312.17752 378.930375 l
313.295383 382.386375 l
314.413246 380.658375 l
315.531109 380.658375 l
316.648972 378.930375 l
317.766835 382.386375 l
318.884698 382.386375 l
320.002562 378.930375 l
321.120425 380.658375 l
322.238288 378.930375 l
323.356151 380.658375 l
324.474014 378.930375 l
325.591877 382.386375 l
326.70974 378.930375 l
327.827603 378.930375 l
328.945466 380.658375 l
330.06333 380.658375 l
331.181193 378.930375 l
332.299056 378.930375 l
333.416919 380.658375 l
334.534782 380.658375 l
335.652645 378.930375 l
336.770508 378.930375 l
337.888371 380.658375 l
339.006234 380.658375 l
340.124097 378.930375 l
341.241961 378.930375 l
342.359824 380.658375 l
343.477687 380.658375 l
344.59555 378.930375 l
345.713413 378.930375 l
346.831276 380.658375 l
347.949139 380.658375 l
349.067002 378.930375 l
350.184865 378.930375 l
351.302729 380.658375 l
352.420592 378.930375 l
353.538455 380.658375 l
354.656318 378.930375 l
355.774181 380.658375 l
356.892044 378.930375 l
358.009907 380.658375 l
359.12777 378.930375 l
360.245633 380.658375 l
361.363496 380.658375 l
362.48136 378.930375 l
363.599223 378.930375 l
364.717086 380.658375 l
365.834949 378.930375 l
366.952812 380.658375 l
368.070675 380.658375 l
369.188538 378.930375 l
370.306401 378.930375 l
371.424264 380.658375 l
372.542128 378.930375 l
373.659991 380.658375 l
374.777854 378.930375 l
375.895717 380.658375 l
377.01358 378.930375 l
378.131443 380.658375 l
379.249306 378.930375 l
380.367169 380.658375 l
381.485032 378.930375 l
382.602895 380.658375 l
383.720759 378.930375 l
384.838622 380.658375 l
385.956485 378.930375 l
387.074348 380.658375 l
388.192211 378.930375 l
389.310074 380.658375 l
390.427937 378.930375 l
391.5458 380.658375 l
392.663663 378.930375 l
397.135116 378.930375 l
398.252979 380.658375 l
399.370842 378.930375 l
401.606568 378.930375 l
402.724431 380.658375 l
403.842294 378.930375 l
410.549473 378.930375 l
411.667336 380.658375 l
412.785199 378.930375 l
415.020926 378.930375 l
416.138789 377.202375 l
418.374515 380.658375 l
419.492378 378.930375 l
421.728104 378.930375 l
422.845967 377.202375 l
423.96383 378.930375 l
425.081693 377.202375 l
427.31742 380.658375 l
428.435283 380.658375 l
429.553146 83.442375 l
430.671009 92.082375 l
431.788872 93.810375 l
435.142461 93.810375 l
436.260324 95.538375 l
437.378188 93.810375 l
439.613914 93.810375 l
440.731777 95.538375 l
441.84964 93.810375 l
442.967503 97.266375 l
445.203229 93.810375 l
446.321092 97.266375 l
447.438956 95.538375 l
448.556819 97.266375 l
449.674682 95.538375 l
450.792545 97.266375 l
451.910408 95.538375 l
453.028271 97.266375 l
454.146134 95.538375 l
455.263997 97.266375 l
456.38186 95.538375 l
457.499723 97.266375 l
458.617587 95.538375 l
459.73545 97.266375 l
460.853313 95.538375 l
461.971176 97.266375 l
464.206902 97.266375 l
465.324765 95.538375 l
466.442628 97.266375 l
467.560491 95.538375 l
468.678355 97.266375 l
477.621259 97.266375 l
478.739122 98.994375 l
479.856986 97.266375 l
480.974849 98.994375 l
482.092712 97.266375 l
483.210575 98.994375 l
484.328438 98.994375 l
485.446301 97.266375 l
486.564164 97.266375 l
487.682027 98.994375 l
488.79989 98.994375 l
489.917754 97.266375 l
493.271343 97.266375 l
494.389206 98.994375 l
495.507069 97.266375 l
496.624932 98.994375 l
497.742795 98.994375 l
498.860658 97.266375 l
499.978521 97.266375 l
501.096385 98.994375 l
502.214248 97.266375 l
503.332111 98.994375 l
504.449974 97.266375 l
505.567837 98.994375 l
506.6857 97.266375 l
507.803563 98.994375 l
508.921426 98.994375 l
510.039289 97.266375 l
511.157153 97.266375 l
512.275016 98.994375 l
513.392879 98.994375 l
514.510742 97.266375 l
515.628605 100.722375 l
516.746468 97.266375 l
517.864331 97.266375 l
518.982194 98.994375 l
520.100057 97.266375 l
521.21792 98.994375 l
522.335784 98.994375 l
523.453647 97.266375 l
524.57151 98.994375 l
525.689373 97.266375 l
526.807236 97.266375 l
529.042962 100.722375 l
530.160825 97.266375 l
531.278688 97.266375 l
532.396552 98.994375 l
533.514415 98.994375 l
534.632278 97.266375 l
535.750141 97.266375 l
536.868004 98.994375 l
537.985867 98.994375 l
539.10373 97.266375 l
540.221593 98.994375 l
541.339456 97.266375 l
542.457319 97.266375 l
543.575183 100.722375 l
544.693046 98.994375 l
545.810909 100.722375 l
548.046635 97.266375 l
549.164498 98.994375 l
550.282361 97.266375 l
551.400224 97.266375 l
552.518087 100.722375 l
554.753814 97.266375 l
555.871677 98.994375 l
558.107403 98.994375 l
559.225266 97.266375 l
560.343129 98.994375 l
561.460992 97.266375 l
562.578855 98.994375 l
563.696718 98.994375 l
564.814582 100.722375 l
565.932445 97.266375 l
567.050308 100.722375 l
568.168171 97.266375 l
569.286034 100.722375 l
570.403897 97.266375 l
571.52176 97.266375 l
572.639623 100.722375 l
574.87535 97.266375 l
575.993213 98.994375 l
577.111076 97.266375 l
578.228939 98.994375 l
579.346802 97.266375 l
580.464665 98.994375 l
581.582528 97.266375 l
582.700391 97.266375 l
583.818254 100.722375 l
586.053981 97.266375 l
587.171844 98.994375 l
588.289707 97.266375 l
589.40757 98.994375 l
590.525433 97.266375 l
591.643296 97.266375 l
592.761159 100.722375 l
594.996885 97.266375 l
596.114749 97.266375 l
597.232612 100.722375 l
598.350475 98.994375 l
599.468338 247.602375 l
600.586201 240.690375 l
601.704064 238.962375 l
602.821927 238.962375 l
603.93979 237.234375 l
605.057653 238.962375 l
606.175516 237.234375 l
607.29338 238.962375 l
608.411243 237.234375 l
609.529106 238.962375 l
610.646969 237.234375 l
611.764832 237.234375 l
612.882695 238.962375 l
614.000558 237.234375 l
615.118421 238.962375 l
616.236284 238.962375 l
617.354148 237.234375 l
618.472011 238.962375 l
619.589874 237.234375 l
620.707737 238.962375 l
621.8256 237.234375 l
622.943463 238.962375 l
625.179189 238.962375 l
626.297052 237.234375 l
627.414915 238.962375 l
628.532779 237.234375 l
629.650642 237.234375 l
630.768505 238.962375 l
631.886368 237.234375 l
633.004231 238.962375 l
634.122094 237.234375 l
635.239957 237.234375 l
636.35782 238.962375 l
637.475683 237.234375 l
638.593547 237.234375 l
639.71141 238.962375 l
640.829273 237.234375 l
641.947136 238.962375 l
643.064999 238.962375 l
644.182862 237.234375 l
645.300725 237.234375 l
646.418588 238.962375 l
647.536451 238.962375 l
648.654314 237.234375 l
649.772178 237.234375 l
650.890041 238.962375 l
652.007904 237.234375 l
653.125767 238.962375 l
654.24363 237.234375 l
658.715082 237.234375 l
659.832946 238.962375 l
660.950809 237.234375 l
662.068672 238.962375 l
663.186535 238.962375 l
664.304398 237.234375 l
665.422261 237.234375 l
666.540124 238.962375 l
667.657987 237.234375 l
668.77585 238.962375 l
669.893713 237.234375 l
671.011577 238.962375 l
672.12944 237.234375 l
676.600892 237.234375 l
677.718755 238.962375 l
678.836618 237.234375 l
685.543797 237.234375 l
686.66166 238.962375 l
687.779523 237.234375 l
690.015249 237.234375 l
691.133112 238.962375 l
692.250976 237.234375 l
693.368839 238.962375 l
694.486702 237.234375 l
701.19388 237.234375 l
702.311744 238.962375 l
703.429607 238.962375 l
704.54747 237.234375 l
705.665333 237.234375 l
706.783196 238.962375 l
707.901059 237.234375 l
710.136785 237.234375 l
711.254648 238.962375 l
712.372511 237.234375 l
713.490375 238.962375 l
714.608238 237.234375 l
715.726101 237.234375 l
716.843964 238.962375 l
717.961827 237.234375 l
724.669006 237.234375 l
725.786869 238.962375 l
726.904732 237.234375 l
729.140458 237.234375 l
730.258321 238.962375 l
731.376184 237.234375 l
734.729774 237.234375 l
735.847637 235.506375 l
738.083363 238.962375 l
739.201226 237.234375 l
743.672678 237.234375 l
744.790542 238.962375 l
745.908405 237.234375 l
748.144131 237.234375 l
749.261994 238.962375 l
750.379857 237.234375 l
752.615583 237.234375 l
753.733446 238.962375 l
754.851309 237.234375 l
759.322762 237.234375 l
760.440625 235.506375 l
760.440625 235.506375 l
stroke
grestore
0 setlinejoin
0.000 setgray
gsave
90.840625 410.034375 m
760.440625 410.034375 l
stroke
grestore
gsave
90.840625 64.434375 m
760.440625 64.434375 l
stroke
grestore
gsave
760.440625 64.434375 m
760.440625 410.034375 l
stroke
grestore
gsave
90.840625 64.434375 m
90.840625 410.034375 l
stroke
grestore
0.500 setlinewidth
1 setlinejoin
0 setlinecap
[1 3] 0 setdash
gsave
669.6 345.6 90.84 64.43 clipbox
93.076351 64.434375 m
93.076351 410.034375 l
stroke
grestore
[] 0 setdash
gsave
/o {
gsave
newpath
translate
0.5 setlinewidth
1 setlinejoin
0 setlinecap
0 0 m
0 4 l

gsave
0.000 setgray
fill
grestore
stroke
grestore
} bind def
93.0764 64.4344 o
grestore
gsave
/o {
gsave
newpath
translate
0.5 setlinewidth
1 setlinejoin
0 setlinecap
0 0 m
0 -4 l

gsave
0.000 setgray
fill
grestore
stroke
grestore
} bind def
93.0764 410.034 o
grestore
/BitstreamVeraSans-Roman findfont
24.000 scalefont
setfont
gsave
60.123226 42.200000 translate
0.000000 rotate
0.000000 0.000000 m /minus glyphshow
20.109375 0.000000 m /six glyphshow
35.378906 0.000000 m /zero glyphshow
50.648438 0.000000 m /zero glyphshow
grestore
[1 3] 0 setdash
gsave
669.6 345.6 90.84 64.43 clipbox
204.862662 64.434375 m
204.862662 410.034375 l
stroke
grestore
[] 0 setdash
gsave
/o {
gsave
newpath
translate
0.5 setlinewidth
1 setlinejoin
0 setlinecap
0 0 m
0 4 l

gsave
0.000 setgray
fill
grestore
stroke
grestore
} bind def
204.863 64.4344 o
grestore
gsave
/o {
gsave
newpath
translate
0.5 setlinewidth
1 setlinejoin
0 setlinecap
0 0 m
0 -4 l

gsave
0.000 setgray
fill
grestore
stroke
grestore
} bind def
204.863 410.034 o
grestore
gsave
171.909537 42.200000 translate
0.000000 rotate
0.000000 0.000000 m /minus glyphshow
20.109375 0.000000 m /four glyphshow
35.378906 0.000000 m /zero glyphshow
50.648438 0.000000 m /zero glyphshow
grestore
[1 3] 0 setdash
gsave
669.6 345.6 90.84 64.43 clipbox
316.648972 64.434375 m
316.648972 410.034375 l
stroke
grestore
[] 0 setdash
gsave
/o {
gsave
newpath
translate
0.5 setlinewidth
1 setlinejoin
0 setlinecap
0 0 m
0 4 l

gsave
0.000 setgray
fill
grestore
stroke
grestore
} bind def
316.649 64.4344 o
grestore
gsave
/o {
gsave
newpath
translate
0.5 setlinewidth
1 setlinejoin
0 setlinecap
0 0 m
0 -4 l

gsave
0.000 setgray
fill
grestore
stroke
grestore
} bind def
316.649 410.034 o
grestore
gsave
283.695847 42.200000 translate
0.000000 rotate
0.000000 0.000000 m /minus glyphshow
20.109375 0.000000 m /two glyphshow
35.378906 0.000000 m /zero glyphshow
50.648438 0.000000 m /zero glyphshow
grestore
[1 3] 0 setdash
gsave
669.6 345.6 90.84 64.43 clipbox
428.435283 64.434375 m
428.435283 410.034375 l
stroke
grestore
[] 0 setdash
gsave
/o {
gsave
newpath
translate
0.5 setlinewidth
1 setlinejoin
0 setlinecap
0 0 m
0 4 l

gsave
0.000 setgray
fill
grestore
stroke
grestore
} bind def
428.435 64.4344 o
grestore
gsave
/o {
gsave
newpath
translate
0.5 setlinewidth
1 setlinejoin
0 setlinecap
0 0 m
0 -4 l

gsave
0.000 setgray
fill
grestore
stroke
grestore
} bind def
428.435 410.034 o
grestore
gsave
420.802470 42.200000 translate
0.000000 rotate
0.000000 0.000000 m /zero glyphshow
grestore
[1 3] 0 setdash
gsave
669.6 345.6 90.84 64.43 clipbox
540.221593 64.434375 m
540.221593 410.034375 l
stroke
grestore
[] 0 setdash
gsave
/o {
gsave
newpath
translate
0.5 setlinewidth
1 setlinejoin
0 setlinecap
0 0 m
0 4 l

gsave
0.000 setgray
fill
grestore
stroke
grestore
} bind def
540.222 64.4344 o
grestore
gsave
/o {
gsave
newpath
translate
0.5 setlinewidth
1 setlinejoin
0 setlinecap
0 0 m
0 -4 l

gsave
0.000 setgray
fill
grestore
stroke
grestore
} bind def
540.222 410.034 o
grestore
gsave
517.323156 42.200000 translate
0.000000 rotate
0.000000 0.000000 m /two glyphshow
15.269531 0.000000 m /zero glyphshow
30.539062 0.000000 m /zero glyphshow
grestore
[1 3] 0 setdash
gsave
669.6 345.6 90.84 64.43 clipbox
652.007904 64.434375 m
652.007904 410.034375 l
stroke
grestore
[] 0 setdash
gsave
/o {
gsave
newpath
translate
0.5 setlinewidth
1 setlinejoin
0 setlinecap
0 0 m
0 4 l

gsave
0.000 setgray
fill
grestore
stroke
grestore
} bind def
652.008 64.4344 o
grestore
gsave
/o {
gsave
newpath
translate
0.5 setlinewidth
1 setlinejoin
0 setlinecap
0 0 m
0 -4 l

gsave
0.000 setgray
fill
grestore
stroke
grestore
} bind def
652.008 410.034 o
grestore
gsave
629.109466 42.200000 translate
0.000000 rotate
0.000000 0.000000 m /four glyphshow
15.269531 0.000000 m /zero glyphshow
30.539062 0.000000 m /zero glyphshow
grestore
gsave
358.140625 13.200000 translate
0.000000 rotate
/BitstreamVeraSans-Roman findfont
24.0 scalefont
setfont
0.000000 0.765625 moveto
/T glyphshow

14.660156 0.765625 moveto
/e glyphshow

29.425781 0.765625 moveto
/m glyphshow

52.804688 0.765625 moveto
/p glyphshow

68.039062 0.765625 moveto
/o glyphshow

82.722656 0.765625 moveto
/space glyphshow

90.351562 0.765625 moveto
/bracketleft glyphshow

/Cmmi10 findfont
24.0 scalefont
setfont
99.714844 0.765625 moveto
/mu glyphshow

114.164062 0.765625 moveto
/s glyphshow

/BitstreamVeraSans-Roman findfont
24.0 scalefont
setfont
125.390625 0.765625 moveto
/bracketright glyphshow


grestore
[1 3] 0 setdash
gsave
669.6 345.6 90.84 64.43 clipbox
90.840625 64.434375 m
760.440625 64.434375 l
stroke
grestore
[] 0 setdash
gsave
/o {
gsave
newpath
translate
0.5 setlinewidth
1 setlinejoin
0 setlinecap
0 0 m
4 0 l

gsave
0.000 setgray
fill
grestore
stroke
grestore
} bind def
90.8406 64.4344 o
grestore
gsave
/o {
gsave
newpath
translate
0.5 setlinewidth
1 setlinejoin
0 setlinecap
0 0 m
-4 0 l

gsave
0.000 setgray
fill
grestore
stroke
grestore
} bind def
760.441 64.4344 o
grestore
gsave
36.200000 57.817187 translate
0.000000 rotate
0.000000 0.000000 m /minus glyphshow
20.109375 0.000000 m /four glyphshow
35.378906 0.000000 m /zero glyphshow
grestore
[1 3] 0 setdash
gsave
669.6 345.6 90.84 64.43 clipbox
90.840625 107.634375 m
760.440625 107.634375 l
stroke
grestore
[] 0 setdash
gsave
/o {
gsave
newpath
translate
0.5 setlinewidth
1 setlinejoin
0 setlinecap
0 0 m
4 0 l

gsave
0.000 setgray
fill
grestore
stroke
grestore
} bind def
90.8406 107.634 o
grestore
gsave
/o {
gsave
newpath
translate
0.5 setlinewidth
1 setlinejoin
0 setlinecap
0 0 m
-4 0 l

gsave
0.000 setgray
fill
grestore
stroke
grestore
} bind def
760.441 107.634 o
grestore
gsave
36.200000 101.017187 translate
0.000000 rotate
0.000000 0.000000 m /minus glyphshow
20.109375 0.000000 m /three glyphshow
35.378906 0.000000 m /zero glyphshow
grestore
[1 3] 0 setdash
gsave
669.6 345.6 90.84 64.43 clipbox
90.840625 150.834375 m
760.440625 150.834375 l
stroke
grestore
[] 0 setdash
gsave
/o {
gsave
newpath
translate
0.5 setlinewidth
1 setlinejoin
0 setlinecap
0 0 m
4 0 l

gsave
0.000 setgray
fill
grestore
stroke
grestore
} bind def
90.8406 150.834 o
grestore
gsave
/o {
gsave
newpath
translate
0.5 setlinewidth
1 setlinejoin
0 setlinecap
0 0 m
-4 0 l

gsave
0.000 setgray
fill
grestore
stroke
grestore
} bind def
760.441 150.834 o
grestore
gsave
36.200000 144.217187 translate
0.000000 rotate
0.000000 0.000000 m /minus glyphshow
20.109375 0.000000 m /two glyphshow
35.378906 0.000000 m /zero glyphshow
grestore
[1 3] 0 setdash
gsave
669.6 345.6 90.84 64.43 clipbox
90.840625 194.034375 m
760.440625 194.034375 l
stroke
grestore
[] 0 setdash
gsave
/o {
gsave
newpath
translate
0.5 setlinewidth
1 setlinejoin
0 setlinecap
0 0 m
4 0 l

gsave
0.000 setgray
fill
grestore
stroke
grestore
} bind def
90.8406 194.034 o
grestore
gsave
/o {
gsave
newpath
translate
0.5 setlinewidth
1 setlinejoin
0 setlinecap
0 0 m
-4 0 l

gsave
0.000 setgray
fill
grestore
stroke
grestore
} bind def
760.441 194.034 o
grestore
gsave
36.200000 187.417188 translate
0.000000 rotate
0.000000 0.000000 m /minus glyphshow
20.109375 0.000000 m /one glyphshow
35.378906 0.000000 m /zero glyphshow
grestore
[1 3] 0 setdash
gsave
669.6 345.6 90.84 64.43 clipbox
90.840625 237.234375 m
760.440625 237.234375 l
stroke
grestore
[] 0 setdash
gsave
/o {
gsave
newpath
translate
0.5 setlinewidth
1 setlinejoin
0 setlinecap
0 0 m
4 0 l

gsave
0.000 setgray
fill
grestore
stroke
grestore
} bind def
90.8406 237.234 o
grestore
gsave
/o {
gsave
newpath
translate
0.5 setlinewidth
1 setlinejoin
0 setlinecap
0 0 m
-4 0 l

gsave
0.000 setgray
fill
grestore
stroke
grestore
} bind def
760.441 237.234 o
grestore
gsave
71.575000 230.617188 translate
0.000000 rotate
0.000000 0.000000 m /zero glyphshow
grestore
[1 3] 0 setdash
gsave
669.6 345.6 90.84 64.43 clipbox
90.840625 280.434375 m
760.440625 280.434375 l
stroke
grestore
[] 0 setdash
gsave
/o {
gsave
newpath
translate
0.5 setlinewidth
1 setlinejoin
0 setlinecap
0 0 m
4 0 l

gsave
0.000 setgray
fill
grestore
stroke
grestore
} bind def
90.8406 280.434 o
grestore
gsave
/o {
gsave
newpath
translate
0.5 setlinewidth
1 setlinejoin
0 setlinecap
0 0 m
-4 0 l

gsave
0.000 setgray
fill
grestore
stroke
grestore
} bind def
760.441 280.434 o
grestore
gsave
56.309375 273.817187 translate
0.000000 rotate
0.000000 0.000000 m /one glyphshow
15.269531 0.000000 m /zero glyphshow
grestore
[1 3] 0 setdash
gsave
669.6 345.6 90.84 64.43 clipbox
90.840625 323.634375 m
760.440625 323.634375 l
stroke
grestore
[] 0 setdash
gsave
/o {
gsave
newpath
translate
0.5 setlinewidth
1 setlinejoin
0 setlinecap
0 0 m
4 0 l

gsave
0.000 setgray
fill
grestore
stroke
grestore
} bind def
90.8406 323.634 o
grestore
gsave
/o {
gsave
newpath
translate
0.5 setlinewidth
1 setlinejoin
0 setlinecap
0 0 m
-4 0 l

gsave
0.000 setgray
fill
grestore
stroke
grestore
} bind def
760.441 323.634 o
grestore
gsave
56.309375 317.017187 translate
0.000000 rotate
0.000000 0.000000 m /two glyphshow
15.269531 0.000000 m /zero glyphshow
grestore
[1 3] 0 setdash
gsave
669.6 345.6 90.84 64.43 clipbox
90.840625 366.834375 m
760.440625 366.834375 l
stroke
grestore
[] 0 setdash
gsave
/o {
gsave
newpath
translate
0.5 setlinewidth
1 setlinejoin
0 setlinecap
0 0 m
4 0 l

gsave
0.000 setgray
fill
grestore
stroke
grestore
} bind def
90.8406 366.834 o
grestore
gsave
/o {
gsave
newpath
translate
0.5 setlinewidth
1 setlinejoin
0 setlinecap
0 0 m
-4 0 l

gsave
0.000 setgray
fill
grestore
stroke
grestore
} bind def
760.441 366.834 o
grestore
gsave
56.309375 360.217188 translate
0.000000 rotate
0.000000 0.000000 m /three glyphshow
15.269531 0.000000 m /zero glyphshow
grestore
[1 3] 0 setdash
gsave
669.6 345.6 90.84 64.43 clipbox
90.840625 410.034375 m
760.440625 410.034375 l
stroke
grestore
[] 0 setdash
gsave
/o {
gsave
newpath
translate
0.5 setlinewidth
1 setlinejoin
0 setlinecap
0 0 m
4 0 l

gsave
0.000 setgray
fill
grestore
stroke
grestore
} bind def
90.8406 410.034 o
grestore
gsave
/o {
gsave
newpath
translate
0.5 setlinewidth
1 setlinejoin
0 setlinecap
0 0 m
-4 0 l

gsave
0.000 setgray
fill
grestore
stroke
grestore
} bind def
760.441 410.034 o
grestore
gsave
56.309375 403.417188 translate
0.000000 rotate
0.000000 0.000000 m /four glyphshow
15.269531 0.000000 m /zero glyphshow
grestore
gsave
26.200000 155.234375 translate
90.000000 rotate
/BitstreamVeraSans-Roman findfont
24.0 scalefont
setfont
0.000000 0.765625 moveto
/A glyphshow

16.417969 0.765625 moveto
/m glyphshow

39.796875 0.765625 moveto
/p glyphshow

55.031250 0.765625 moveto
/l glyphshow

61.699219 0.765625 moveto
/i glyphshow

68.367188 0.765625 moveto
/t glyphshow

77.777344 0.765625 moveto
/u glyphshow

92.988281 0.765625 moveto
/d glyphshow

108.222656 0.765625 moveto
/e glyphshow

122.988281 0.765625 moveto
/space glyphshow

130.617188 0.765625 moveto
/bracketleft glyphshow

/Cmmi10 findfont
24.0 scalefont
setfont
139.980469 0.765625 moveto
/V glyphshow

/BitstreamVeraSans-Roman findfont
24.0 scalefont
setfont
153.972656 0.765625 moveto
/bracketright glyphshow


grestore
/BitstreamVeraSans-Roman findfont
28.800 scalefont
setfont
gsave
327.093750 415.034375 translate
0.000000 rotate
0.000000 0.000000 m /P glyphshow
17.365295 0.000000 m /u glyphshow
35.616440 0.000000 m /l glyphshow
43.617126 0.000000 m /s glyphshow
58.620178 0.000000 m /o glyphshow
76.238571 0.000000 m /space glyphshow
85.392258 0.000000 m /B glyphshow
105.147919 0.000000 m /i glyphshow
113.148605 0.000000 m /f glyphshow
123.286560 0.000000 m /aacute glyphshow
140.933075 0.000000 m /s glyphshow
155.936127 0.000000 m /i glyphshow
163.936813 0.000000 m /c glyphshow
179.769470 0.000000 m /o glyphshow
grestore

end
showpage
