%!PS-Adobe-3.0 EPSF-3.0
%%Title: ./rampa_osciloscope.eps
%%Creator: matplotlib version 1.5.1, http://matplotlib.org/
%%CreationDate: Tue Apr 12 21:21:25 2016
%%Orientation: portrait
%%BoundingBox: -77 174 689 617
%%EndComments
%%BeginProlog
/mpldict 9 dict def
mpldict begin
/m { moveto } bind def
/l { lineto } bind def
/r { rlineto } bind def
/c { curveto } bind def
/cl { closepath } bind def
/box {
m
1 index 0 r
0 exch r
neg 0 r
cl
} bind def
/clipbox {
box
clip
newpath
} bind def
%!PS-Adobe-3.0 Resource-Font
%%Title: cmmi10
%%Copyright: Copyright (C) 1994, Basil K. Malyshev. All Rights Reserved.012BaKoMa Fonts Collection, Level-B.
%%Creator: Converted from TrueType to type 3 by PPR
25 dict begin
/_d{bind def}bind def
/_m{moveto}_d
/_l{lineto}_d
/_cl{closepath eofill}_d
/_c{curveto}_d
/_sc{7 -1 roll{setcachedevice}{pop pop pop pop pop pop}ifelse}_d
/_e{exec}_d
/FontName /Cmmi10 def
/PaintType 0 def
/FontMatrix[.001 0 0 .001 0 0]def
/FontBBox[-34 -250 1048 750]def
/FontType 3 def
/Encoding [ /m /s /V ] def
/FontInfo 10 dict dup begin
/FamilyName (cmmi10) def
/FullName (cmmi10) def
/Notice (Copyright (C) 1994, Basil K. Malyshev. All Rights Reserved.012BaKoMa Fonts Collection, Level-B. ) def
/Weight (Regular) def
/Version (1.1/12-Nov-94) def
/ItalicAngle 0.0 def
/isFixedPitch false def
/UnderlinePosition -133 def
/UnderlineThickness 20 def
end readonly def
/CharStrings 3 dict dup begin
/m{{878 0 27 -10 851 442 _sc
77 17 _m
77 21 77 24 78 26 _c
153 324 _l
157 342 160 359 160 373 _c
160 401 150 416 131 416 _c
110 416 94 403 84 378 _c
74 353 64 322 55 284 _c
55 282 54 280 52 279 _c
50 278 48 278 47 278 _c
35 278 _l
33 278 31 279 29 281 _c
27 283 27 286 27 288 _c
34 317 41 342 48 362 _c
54 382 65 400 79 417 _c
}_e{93 433 110 442 132 442 _c
156 442 178 434 198 418 _c
217 402 227 382 227 358 _c
247 384 270 404 297 419 _c
323 434 352 442 382 442 _c
413 442 440 434 463 418 _c
486 402 498 379 498 349 _c
518 378 542 401 570 417 _c
597 433 627 442 660 442 _c
694 442 722 432 743 414 _c
764 395 775 368 775 334 _c
775 306 768 273 756 235 _c
744 196 729 153 711 105 _c
}_e{701 81 697 61 697 45 _c
697 25 704 15 720 15 _c
746 15 767 29 785 57 _c
802 85 814 115 822 147 _c
824 151 826 153 830 153 _c
842 153 _l
844 153 846 152 848 150 _c
850 148 851 146 851 144 _c
851 143 850 142 850 141 _c
840 103 824 68 802 37 _c
780 5 752 -10 718 -10 _c
694 -10 674 -2 658 13 _c
641 29 633 48 633 72 _c
633 83 635 96 641 111 _c
}_e{659 161 675 205 688 245 _c
700 284 707 319 707 349 _c
707 367 703 383 696 396 _c
688 409 676 416 658 416 _c
622 416 590 404 563 382 _c
536 360 513 330 494 294 _c
492 287 491 282 491 279 _c
427 22 _l
424 12 419 5 411 -1 _c
403 -7 394 -10 385 -10 _c
377 -10 370 -7 364 -3 _c
358 1 355 8 355 17 _c
355 21 355 24 356 26 _c
420 281 _l
426 308 430 331 430 349 _c
}_e{430 367 426 383 418 396 _c
410 409 398 416 380 416 _c
355 416 332 410 312 400 _c
292 389 274 375 259 357 _c
243 339 229 318 217 294 _c
149 22 _l
147 12 142 5 134 -1 _c
126 -7 117 -10 107 -10 _c
99 -10 92 -7 86 -3 _c
80 1 77 8 77 17 _c
_cl}_e}_d
/s{{468 0 52 -10 419 442 _sc
87 61 _m
105 30 141 15 195 15 _c
218 15 240 19 261 27 _c
282 35 300 47 314 63 _c
328 79 335 98 335 121 _c
335 138 328 152 316 163 _c
304 174 289 182 271 186 _c
217 197 _l
192 203 172 214 156 231 _c
140 248 132 269 132 293 _c
132 322 140 348 156 371 _c
172 394 193 412 219 424 _c
245 436 273 442 302 442 _c
332 442 359 434 383 420 _c
}_e{407 405 419 384 419 356 _c
419 340 414 327 406 315 _c
397 303 385 298 370 298 _c
361 298 353 300 347 306 _c
341 312 338 319 338 328 _c
338 336 340 343 344 351 _c
348 358 354 364 362 368 _c
369 372 377 375 385 375 _c
379 389 368 399 352 406 _c
336 412 318 416 300 416 _c
282 416 265 412 249 406 _c
232 399 218 389 208 376 _c
198 362 193 347 193 329 _c
}_e{193 317 197 306 205 297 _c
213 288 224 282 237 278 _c
295 266 _l
313 262 330 255 346 245 _c
361 235 373 222 382 207 _c
391 192 396 175 396 156 _c
396 131 389 106 375 82 _c
361 58 344 39 324 25 _c
288 1 245 -10 194 -10 _c
158 -10 126 -2 96 14 _c
66 30 52 54 52 86 _c
52 104 57 119 67 133 _c
77 147 92 154 111 154 _c
121 154 130 150 138 144 _c
}_e{145 137 149 128 149 118 _c
149 102 143 89 132 78 _c
120 66 107 61 92 61 _c
87 61 _l
_cl}_e}_d
/V{{583 0 55 -21 769 683 _sc
220 -10 _m
140 626 _l
135 640 110 648 65 648 _c
58 648 55 652 55 661 _c
56 668 58 673 60 677 _c
62 681 66 683 72 683 _c
316 683 _l
319 683 321 681 323 679 _c
325 676 326 673 326 670 _c
323 655 319 648 313 648 _c
261 648 233 639 230 621 _c
296 98 _l
604 590 _l
610 600 613 609 613 616 _c
613 628 607 636 597 641 _c
586 645 574 648 560 648 _c
}_e{553 648 550 652 550 661 _c
551 666 552 670 553 673 _c
554 676 556 678 558 680 _c
560 682 563 683 567 683 _c
760 683 _l
766 683 769 678 769 670 _c
766 655 762 648 756 648 _c
706 648 666 626 638 582 _c
636 580 635 580 635 580 _c
266 -10 _l
261 -17 255 -21 247 -21 _c
233 -21 _l
225 -21 221 -17 220 -10 _c
_cl}_e}_d
end readonly def

/BuildGlyph
 {exch begin
 CharStrings exch
 2 copy known not{pop /.notdef}if
 true 3 1 roll get exec
 end}_d

/BuildChar {
 1 index /Encoding get exch get
 1 index /BuildGlyph get exec
}_d

FontName currentdict end definefont pop
%!PS-Adobe-3.0 Resource-Font
%%Title: Bitstream Vera Sans
%%Copyright: Copyright (c) 2003 by Bitstream, Inc. All Rights Reserved.
%%Creator: Converted from TrueType to type 3 by PPR
25 dict begin
/_d{bind def}bind def
/_m{moveto}_d
/_l{lineto}_d
/_cl{closepath eofill}_d
/_c{curveto}_d
/_sc{7 -1 roll{setcachedevice}{pop pop pop pop pop pop}ifelse}_d
/_e{exec}_d
/FontName /BitstreamVeraSans-Roman def
/PaintType 0 def
/FontMatrix[.001 0 0 .001 0 0]def
/FontBBox[-183 -236 1287 928]def
/FontType 3 def
/Encoding [ /space /zero /one /two /three /four /six /eight /A /R /S /T /bracketleft /bracketright /a /b /d /e /i /l /m /o /p /t /u /minus ] def
/FontInfo 10 dict dup begin
/FamilyName (Bitstream Vera Sans) def
/FullName (Bitstream Vera Sans) def
/Notice (Copyright (c) 2003 by Bitstream, Inc. All Rights Reserved. Bitstream Vera is a trademark of Bitstream, Inc.) def
/Weight (Roman) def
/Version (Release 1.10) def
/ItalicAngle 0.0 def
/isFixedPitch false def
/UnderlinePosition -213 def
/UnderlineThickness 143 def
end readonly def
/CharStrings 26 dict dup begin
/space{318 0 0 0 0 0 _sc
}_d
/zero{636 0 66 -13 570 742 _sc
318 664 _m
267 664 229 639 203 589 _c
177 539 165 464 165 364 _c
165 264 177 189 203 139 _c
229 89 267 64 318 64 _c
369 64 407 89 433 139 _c
458 189 471 264 471 364 _c
471 464 458 539 433 589 _c
407 639 369 664 318 664 _c
318 742 _m
399 742 461 709 505 645 _c
548 580 570 486 570 364 _c
570 241 548 147 505 83 _c
461 19 399 -13 318 -13 _c
236 -13 173 19 130 83 _c
87 147 66 241 66 364 _c
66 486 87 580 130 645 _c
173 709 236 742 318 742 _c
_cl}_d
/one{636 0 110 0 544 729 _sc
124 83 _m
285 83 _l
285 639 _l
110 604 _l
110 694 _l
284 729 _l
383 729 _l
383 83 _l
544 83 _l
544 0 _l
124 0 _l
124 83 _l
_cl}_d
/two{{636 0 73 0 536 742 _sc
192 83 _m
536 83 _l
536 0 _l
73 0 _l
73 83 _l
110 121 161 173 226 239 _c
290 304 331 346 348 365 _c
380 400 402 430 414 455 _c
426 479 433 504 433 528 _c
433 566 419 598 392 622 _c
365 646 330 659 286 659 _c
255 659 222 653 188 643 _c
154 632 117 616 78 594 _c
78 694 _l
118 710 155 722 189 730 _c
223 738 255 742 284 742 _c
}_e{359 742 419 723 464 685 _c
509 647 532 597 532 534 _c
532 504 526 475 515 449 _c
504 422 484 390 454 354 _c
446 344 420 317 376 272 _c
332 227 271 164 192 83 _c
_cl}_e}_d
/three{{636 0 76 -13 556 742 _sc
406 393 _m
453 383 490 362 516 330 _c
542 298 556 258 556 212 _c
556 140 531 84 482 45 _c
432 6 362 -13 271 -13 _c
240 -13 208 -10 176 -4 _c
144 1 110 10 76 22 _c
76 117 _l
103 101 133 89 166 81 _c
198 73 232 69 268 69 _c
330 69 377 81 409 105 _c
441 129 458 165 458 212 _c
458 254 443 288 413 312 _c
383 336 341 349 287 349 _c
}_e{202 349 _l
202 430 _l
291 430 _l
339 430 376 439 402 459 _c
428 478 441 506 441 543 _c
441 580 427 609 401 629 _c
374 649 336 659 287 659 _c
260 659 231 656 200 650 _c
169 644 135 635 98 623 _c
98 711 _l
135 721 170 729 203 734 _c
235 739 266 742 296 742 _c
370 742 429 725 473 691 _c
517 657 539 611 539 553 _c
539 513 527 479 504 451 _c
481 423 448 403 406 393 _c
_cl}_e}_d
/four{636 0 49 0 580 729 _sc
378 643 _m
129 254 _l
378 254 _l
378 643 _l
352 729 _m
476 729 _l
476 254 _l
580 254 _l
580 172 _l
476 172 _l
476 0 _l
378 0 _l
378 172 _l
49 172 _l
49 267 _l
352 729 _l
_cl}_d
/six{{636 0 70 -13 573 742 _sc
330 404 _m
286 404 251 388 225 358 _c
199 328 186 286 186 234 _c
186 181 199 139 225 109 _c
251 79 286 64 330 64 _c
374 64 409 79 435 109 _c
461 139 474 181 474 234 _c
474 286 461 328 435 358 _c
409 388 374 404 330 404 _c
526 713 _m
526 623 _l
501 635 476 644 451 650 _c
425 656 400 659 376 659 _c
310 659 260 637 226 593 _c
}_e{192 549 172 482 168 394 _c
187 422 211 444 240 459 _c
269 474 301 482 336 482 _c
409 482 467 459 509 415 _c
551 371 573 310 573 234 _c
573 159 550 99 506 54 _c
462 9 403 -13 330 -13 _c
246 -13 181 19 137 83 _c
92 147 70 241 70 364 _c
70 479 97 571 152 639 _c
206 707 280 742 372 742 _c
396 742 421 739 447 735 _c
472 730 498 723 526 713 _c
_cl}_e}_d
/eight{{636 0 68 -13 568 742 _sc
318 346 _m
271 346 234 333 207 308 _c
180 283 167 249 167 205 _c
167 161 180 126 207 101 _c
234 76 271 64 318 64 _c
364 64 401 76 428 102 _c
455 127 469 161 469 205 _c
469 249 455 283 429 308 _c
402 333 365 346 318 346 _c
219 388 _m
177 398 144 418 120 447 _c
96 476 85 511 85 553 _c
85 611 105 657 147 691 _c
188 725 245 742 318 742 _c
}_e{390 742 447 725 489 691 _c
530 657 551 611 551 553 _c
551 511 539 476 515 447 _c
491 418 459 398 417 388 _c
464 377 501 355 528 323 _c
554 291 568 251 568 205 _c
568 134 546 80 503 43 _c
459 5 398 -13 318 -13 _c
237 -13 175 5 132 43 _c
89 80 68 134 68 205 _c
68 251 81 291 108 323 _c
134 355 171 377 219 388 _c
183 544 _m
183 506 194 476 218 455 _c
}_e{242 434 275 424 318 424 _c
360 424 393 434 417 455 _c
441 476 453 506 453 544 _c
453 582 441 611 417 632 _c
393 653 360 664 318 664 _c
275 664 242 653 218 632 _c
194 611 183 582 183 544 _c
_cl}_e}_d
/A{684 0 8 0 676 729 _sc
342 632 _m
208 269 _l
476 269 _l
342 632 _l
286 729 _m
398 729 _l
676 0 _l
573 0 _l
507 187 _l
178 187 _l
112 0 _l
8 0 _l
286 729 _l
_cl}_d
/R{{695 0 98 0 666 729 _sc
444 342 _m
465 334 486 319 506 296 _c
526 272 546 240 566 199 _c
666 0 _l
560 0 _l
467 187 _l
443 235 419 268 397 284 _c
374 300 343 308 304 308 _c
197 308 _l
197 0 _l
98 0 _l
98 729 _l
321 729 _l
404 729 466 711 507 677 _c
548 642 569 589 569 519 _c
569 473 558 434 537 404 _c
515 374 484 353 444 342 _c
197 648 _m
197 389 _l
321 389 _l
}_e{368 389 404 400 428 422 _c
452 444 465 476 465 519 _c
465 561 452 593 428 615 _c
404 637 368 648 321 648 _c
197 648 _l
_cl}_e}_d
/S{{635 0 66 -13 579 742 _sc
535 705 _m
535 609 _l
497 627 462 640 429 649 _c
395 657 363 662 333 662 _c
279 662 237 651 208 631 _c
179 610 165 580 165 542 _c
165 510 174 485 194 469 _c
213 452 250 439 304 429 _c
364 417 _l
437 403 491 378 526 343 _c
561 307 579 260 579 201 _c
579 130 555 77 508 41 _c
460 5 391 -13 300 -13 _c
265 -13 228 -9 189 -2 _c
}_e{150 5 110 16 69 32 _c
69 134 _l
109 111 148 94 186 83 _c
224 71 262 66 300 66 _c
356 66 399 77 430 99 _c
460 121 476 152 476 194 _c
476 230 465 258 443 278 _c
421 298 385 313 335 323 _c
275 335 _l
201 349 148 372 115 404 _c
82 435 66 478 66 534 _c
66 598 88 649 134 686 _c
179 723 242 742 322 742 _c
356 742 390 739 426 733 _c
461 727 497 717 535 705 _c
}_e{_cl}_e}_d
/T{611 0 -2 0 614 729 _sc
-2 729 _m
614 729 _l
614 646 _l
355 646 _l
355 0 _l
256 0 _l
256 646 _l
-2 646 _l
-2 729 _l
_cl}_d
/bracketleft{390 0 86 -131 293 760 _sc
86 760 _m
293 760 _l
293 690 _l
176 690 _l
176 -61 _l
293 -61 _l
293 -131 _l
86 -131 _l
86 760 _l
_cl}_d
/bracketright{390 0 97 -131 304 760 _sc
304 760 _m
304 -131 _l
97 -131 _l
97 -61 _l
214 -61 _l
214 690 _l
97 690 _l
97 760 _l
304 760 _l
_cl}_d
/a{{613 0 60 -13 522 560 _sc
343 275 _m
270 275 220 266 192 250 _c
164 233 150 205 150 165 _c
150 133 160 107 181 89 _c
202 70 231 61 267 61 _c
317 61 357 78 387 114 _c
417 149 432 196 432 255 _c
432 275 _l
343 275 _l
522 312 _m
522 0 _l
432 0 _l
432 83 _l
411 49 385 25 355 10 _c
325 -5 287 -13 243 -13 _c
187 -13 142 2 109 33 _c
76 64 60 106 60 159 _c
}_e{60 220 80 266 122 298 _c
163 329 224 345 306 345 _c
432 345 _l
432 354 _l
432 395 418 427 391 450 _c
364 472 326 484 277 484 _c
245 484 215 480 185 472 _c
155 464 127 453 100 439 _c
100 522 _l
132 534 164 544 195 550 _c
226 556 256 560 286 560 _c
365 560 424 539 463 498 _c
502 457 522 395 522 312 _c
_cl}_e}_d
/b{{635 0 91 -13 580 760 _sc
487 273 _m
487 339 473 390 446 428 _c
418 466 381 485 334 485 _c
286 485 249 466 222 428 _c
194 390 181 339 181 273 _c
181 207 194 155 222 117 _c
249 79 286 61 334 61 _c
381 61 418 79 446 117 _c
473 155 487 207 487 273 _c
181 464 _m
199 496 223 520 252 536 _c
281 552 316 560 356 560 _c
422 560 476 533 518 481 _c
559 428 580 359 580 273 _c
}_e{580 187 559 117 518 65 _c
476 13 422 -13 356 -13 _c
316 -13 281 -5 252 10 _c
223 25 199 49 181 82 _c
181 0 _l
91 0 _l
91 760 _l
181 760 _l
181 464 _l
_cl}_e}_d
/d{{635 0 55 -13 544 760 _sc
454 464 _m
454 760 _l
544 760 _l
544 0 _l
454 0 _l
454 82 _l
435 49 411 25 382 10 _c
353 -5 319 -13 279 -13 _c
213 -13 159 13 117 65 _c
75 117 55 187 55 273 _c
55 359 75 428 117 481 _c
159 533 213 560 279 560 _c
319 560 353 552 382 536 _c
411 520 435 496 454 464 _c
148 273 _m
148 207 161 155 188 117 _c
215 79 253 61 301 61 _c
}_e{348 61 385 79 413 117 _c
440 155 454 207 454 273 _c
454 339 440 390 413 428 _c
385 466 348 485 301 485 _c
253 485 215 466 188 428 _c
161 390 148 339 148 273 _c
_cl}_e}_d
/e{{615 0 55 -13 562 560 _sc
562 296 _m
562 252 _l
149 252 _l
153 190 171 142 205 110 _c
238 78 284 62 344 62 _c
378 62 412 66 444 74 _c
476 82 509 95 541 113 _c
541 28 _l
509 14 476 3 442 -3 _c
408 -9 373 -13 339 -13 _c
251 -13 182 12 131 62 _c
80 112 55 181 55 268 _c
55 357 79 428 127 481 _c
175 533 241 560 323 560 _c
397 560 455 536 498 489 _c
}_e{540 441 562 377 562 296 _c
472 322 _m
471 371 457 410 431 440 _c
404 469 368 484 324 484 _c
274 484 234 469 204 441 _c
174 413 156 373 152 322 _c
472 322 _l
_cl}_e}_d
/i{278 0 94 0 184 760 _sc
94 547 _m
184 547 _l
184 0 _l
94 0 _l
94 547 _l
94 760 _m
184 760 _l
184 646 _l
94 646 _l
94 760 _l
_cl}_d
/l{278 0 94 0 184 760 _sc
94 760 _m
184 760 _l
184 0 _l
94 0 _l
94 760 _l
_cl}_d
/m{{974 0 91 0 889 560 _sc
520 442 _m
542 482 569 511 600 531 _c
631 550 668 560 711 560 _c
767 560 811 540 842 500 _c
873 460 889 403 889 330 _c
889 0 _l
799 0 _l
799 327 _l
799 379 789 418 771 444 _c
752 469 724 482 686 482 _c
639 482 602 466 575 435 _c
548 404 535 362 535 309 _c
535 0 _l
445 0 _l
445 327 _l
445 379 435 418 417 444 _c
398 469 369 482 331 482 _c
}_e{285 482 248 466 221 435 _c
194 404 181 362 181 309 _c
181 0 _l
91 0 _l
91 547 _l
181 547 _l
181 462 _l
201 495 226 520 255 536 _c
283 552 317 560 357 560 _c
397 560 430 550 458 530 _c
486 510 506 480 520 442 _c
_cl}_e}_d
/o{612 0 55 -13 557 560 _sc
306 484 _m
258 484 220 465 192 427 _c
164 389 150 338 150 273 _c
150 207 163 156 191 118 _c
219 80 257 62 306 62 _c
354 62 392 80 420 118 _c
448 156 462 207 462 273 _c
462 337 448 389 420 427 _c
392 465 354 484 306 484 _c
306 560 _m
384 560 445 534 490 484 _c
534 433 557 363 557 273 _c
557 183 534 113 490 63 _c
445 12 384 -13 306 -13 _c
227 -13 165 12 121 63 _c
77 113 55 183 55 273 _c
55 363 77 433 121 484 _c
165 534 227 560 306 560 _c
_cl}_d
/p{{635 0 91 -207 580 560 _sc
181 82 _m
181 -207 _l
91 -207 _l
91 547 _l
181 547 _l
181 464 _l
199 496 223 520 252 536 _c
281 552 316 560 356 560 _c
422 560 476 533 518 481 _c
559 428 580 359 580 273 _c
580 187 559 117 518 65 _c
476 13 422 -13 356 -13 _c
316 -13 281 -5 252 10 _c
223 25 199 49 181 82 _c
487 273 _m
487 339 473 390 446 428 _c
418 466 381 485 334 485 _c
}_e{286 485 249 466 222 428 _c
194 390 181 339 181 273 _c
181 207 194 155 222 117 _c
249 79 286 61 334 61 _c
381 61 418 79 446 117 _c
473 155 487 207 487 273 _c
_cl}_e}_d
/t{392 0 27 0 368 702 _sc
183 702 _m
183 547 _l
368 547 _l
368 477 _l
183 477 _l
183 180 _l
183 135 189 106 201 94 _c
213 81 238 75 276 75 _c
368 75 _l
368 0 _l
276 0 _l
206 0 158 13 132 39 _c
106 65 93 112 93 180 _c
93 477 _l
27 477 _l
27 547 _l
93 547 _l
93 702 _l
183 702 _l
_cl}_d
/u{634 0 85 -13 543 547 _sc
85 216 _m
85 547 _l
175 547 _l
175 219 _l
175 167 185 129 205 103 _c
225 77 255 64 296 64 _c
344 64 383 79 411 110 _c
439 141 453 183 453 237 _c
453 547 _l
543 547 _l
543 0 _l
453 0 _l
453 84 _l
431 50 405 26 377 10 _c
348 -5 315 -13 277 -13 _c
214 -13 166 6 134 45 _c
101 83 85 140 85 216 _c
_cl}_d
/minus{838 0 106 272 732 355 _sc
106 355 _m
732 355 _l
732 272 _l
106 272 _l
106 355 _l
_cl}_d
end readonly def

/BuildGlyph
 {exch begin
 CharStrings exch
 2 copy known not{pop /.notdef}if
 true 3 1 roll get exec
 end}_d

/BuildChar {
 1 index /Encoding get exch get
 1 index /BuildGlyph get exec
}_d

FontName currentdict end definefont pop
end
%%EndProlog
mpldict begin
-77.82 174.367 translate
767.641 443.266 0 0 clipbox
100000 setmiterlimit
gsave
0 0 m
767.640625 0 l
767.640625 443.265625 l
0 443.265625 l
cl
1.000 setgray
fill
grestore
gsave
90.840625 63.434375 m
760.440625 63.434375 l
760.440625 409.034375 l
90.840625 409.034375 l
cl
1.000 setgray
fill
grestore
1.000 setlinewidth
1 setlinejoin
2 setlinecap
[] 0 setdash
0.000 0.000 1.000 setrgbcolor
gsave
669.6 345.6 90.84 63.43 clipbox
90.840625 236.234375 m
91.958488 237.962375 l
93.076351 239.690375 l
94.194214 232.778375 l
95.312077 236.234375 l
96.429941 234.506375 l
97.547804 236.234375 l
98.665667 234.506375 l
100.901393 237.962375 l
102.019256 236.234375 l
103.137119 237.962375 l
104.254982 236.234375 l
106.490708 236.234375 l
107.608572 237.962375 l
109.844298 234.506375 l
112.080024 237.962375 l
113.197887 237.962375 l
114.31575 234.506375 l
115.433613 236.234375 l
116.551476 234.506375 l
117.66934 237.962375 l
118.787203 234.506375 l
119.905066 237.962375 l
121.022929 234.506375 l
122.140792 234.506375 l
123.258655 237.962375 l
124.376518 236.234375 l
125.494381 236.234375 l
126.612244 237.962375 l
127.730107 234.506375 l
129.965834 237.962375 l
131.083697 236.234375 l
132.20156 237.962375 l
133.319423 236.234375 l
135.555149 236.234375 l
136.673012 237.962375 l
137.790875 237.962375 l
138.908739 234.506375 l
140.026602 236.234375 l
141.144465 236.234375 l
142.262328 237.962375 l
143.380191 234.506375 l
144.498054 236.234375 l
145.615917 234.506375 l
147.851643 237.962375 l
148.969506 237.962375 l
150.08737 232.778375 l
151.205233 236.234375 l
152.323096 237.962375 l
153.440959 236.234375 l
154.558822 237.962375 l
155.676685 236.234375 l
160.148138 236.234375 l
161.266001 234.506375 l
162.383864 234.506375 l
163.501727 237.962375 l
164.61959 236.234375 l
165.737453 237.962375 l
166.855316 236.234375 l
169.091042 236.234375 l
170.208905 237.962375 l
171.326769 236.234375 l
172.444632 237.962375 l
173.562495 234.506375 l
174.680358 237.962375 l
175.798221 244.874375 l
176.916084 227.594375 l
178.033947 236.234375 l
179.15181 234.506375 l
180.269673 234.506375 l
181.387537 237.962375 l
182.5054 234.506375 l
183.623263 237.962375 l
184.741126 236.234375 l
185.858989 237.962375 l
186.976852 236.234375 l
188.094715 237.962375 l
189.212578 236.234375 l
190.330441 237.962375 l
191.448304 234.506375 l
192.566168 237.962375 l
193.684031 234.506375 l
194.801894 237.962375 l
195.919757 236.234375 l
197.03762 237.962375 l
198.155483 236.234375 l
199.273346 237.962375 l
200.391209 236.234375 l
201.509072 237.962375 l
202.626936 251.786375 l
203.744799 220.682375 l
204.862662 218.954375 l
205.980525 236.234375 l
207.098388 237.962375 l
208.216251 234.506375 l
209.334114 234.506375 l
210.451977 237.962375 l
212.687703 234.506375 l
213.805567 237.962375 l
214.92343 234.506375 l
217.159156 237.962375 l
218.277019 236.234375 l
219.394882 237.962375 l
220.512745 237.962375 l
221.630608 234.506375 l
223.866335 237.962375 l
226.102061 234.506375 l
227.219924 234.506375 l
228.337787 237.962375 l
229.45565 236.234375 l
230.573513 237.962375 l
231.691376 262.154375 l
232.809239 210.314375 l
233.927102 234.506375 l
235.044966 237.962375 l
236.162829 237.962375 l
237.280692 234.506375 l
239.516418 237.962375 l
240.634281 237.962375 l
241.752144 234.506375 l
242.870007 237.962375 l
243.98787 234.506375 l
246.223597 237.962375 l
247.34146 237.962375 l
248.459323 234.506375 l
250.695049 237.962375 l
251.812912 234.506375 l
252.930775 237.962375 l
254.048638 236.234375 l
256.284365 236.234375 l
257.402228 237.962375 l
258.520091 269.066375 l
259.637954 201.674375 l
260.755817 236.234375 l
261.87368 234.506375 l
262.991543 237.962375 l
264.109406 234.506375 l
265.227269 236.234375 l
266.345133 234.506375 l
267.462996 234.506375 l
268.580859 237.962375 l
269.698722 236.234375 l
270.816585 237.962375 l
273.052311 234.506375 l
274.170174 237.962375 l
275.288037 234.506375 l
276.4059 236.234375 l
277.523764 234.506375 l
279.75949 237.962375 l
280.877353 234.506375 l
281.995216 237.962375 l
283.113079 237.962375 l
284.230942 234.506375 l
286.466668 237.962375 l
287.584532 281.162375 l
288.702395 193.034375 l
289.820258 236.234375 l
290.938121 237.962375 l
292.055984 236.234375 l
293.173847 237.962375 l
294.29171 236.234375 l
295.409573 237.962375 l
296.527436 234.506375 l
297.645299 237.962375 l
298.763163 236.234375 l
299.881026 237.962375 l
300.998889 236.234375 l
302.116752 237.962375 l
303.234615 236.234375 l
304.352478 237.962375 l
305.470341 237.962375 l
306.588204 234.506375 l
308.823931 237.962375 l
309.941794 237.962375 l
311.059657 234.506375 l
313.295383 237.962375 l
314.413246 288.074375 l
315.531109 182.666375 l
316.648972 234.506375 l
317.766835 237.962375 l
318.884698 237.962375 l
320.002562 234.506375 l
321.120425 234.506375 l
322.238288 237.962375 l
323.356151 234.506375 l
324.474014 237.962375 l
325.591877 236.234375 l
326.70974 237.962375 l
327.827603 236.234375 l
330.06333 236.234375 l
331.181193 234.506375 l
332.299056 236.234375 l
333.416919 234.506375 l
335.652645 237.962375 l
336.770508 236.234375 l
337.888371 237.962375 l
339.006234 236.234375 l
340.124097 237.962375 l
341.241961 237.962375 l
342.359824 234.506375 l
343.477687 296.714375 l
344.59555 172.298375 l
345.713413 236.234375 l
346.831276 236.234375 l
347.949139 237.962375 l
349.067002 234.506375 l
350.184865 234.506375 l
351.302729 237.962375 l
352.420592 237.962375 l
353.538455 234.506375 l
354.656318 236.234375 l
355.774181 234.506375 l
356.892044 237.962375 l
358.009907 234.506375 l
359.12777 236.234375 l
363.599223 236.234375 l
364.717086 237.962375 l
365.834949 236.234375 l
368.070675 236.234375 l
369.188538 237.962375 l
370.306401 310.538375 l
371.424264 165.386375 l
372.542128 236.234375 l
374.777854 236.234375 l
375.895717 237.962375 l
377.01358 237.962375 l
378.131443 234.506375 l
379.249306 237.962375 l
380.367169 234.506375 l
382.602895 237.962375 l
383.720759 237.962375 l
384.838622 234.506375 l
387.074348 237.962375 l
389.310074 234.506375 l
390.427937 236.234375 l
391.5458 234.506375 l
393.781527 237.962375 l
394.89939 236.234375 l
396.017253 237.962375 l
397.135116 236.234375 l
398.252979 237.962375 l
399.370842 315.722375 l
400.488705 158.474375 l
401.606568 234.506375 l
402.724431 237.962375 l
403.842294 236.234375 l
404.960158 237.962375 l
406.078021 234.506375 l
407.195884 237.962375 l
409.43161 234.506375 l
410.549473 237.962375 l
411.667336 234.506375 l
413.903062 237.962375 l
415.020926 234.506375 l
416.138789 237.962375 l
417.256652 236.234375 l
418.374515 236.234375 l
419.492378 234.506375 l
420.610241 237.962375 l
421.728104 236.234375 l
422.845967 237.962375 l
423.96383 234.506375 l
425.081693 237.962375 l
426.199557 324.362375 l
427.31742 148.106375 l
428.435283 236.234375 l
430.671009 236.234375 l
431.788872 237.962375 l
432.906735 236.234375 l
434.024598 237.962375 l
435.142461 236.234375 l
436.260324 237.962375 l
437.378188 236.234375 l
438.496051 237.962375 l
439.613914 234.506375 l
440.731777 237.962375 l
441.84964 236.234375 l
442.967503 236.234375 l
444.085366 237.962375 l
445.203229 234.506375 l
447.438956 237.962375 l
448.556819 234.506375 l
449.674682 237.962375 l
450.792545 236.234375 l
451.910408 237.962375 l
453.028271 234.506375 l
454.146134 333.002375 l
455.263997 333.002375 l
456.38186 137.738375 l
457.499723 236.234375 l
458.617587 234.506375 l
460.853313 237.962375 l
461.971176 236.234375 l
463.089039 237.962375 l
464.206902 236.234375 l
465.324765 237.962375 l
466.442628 236.234375 l
467.560491 237.962375 l
468.678355 236.234375 l
469.796218 237.962375 l
470.914081 236.234375 l
472.031944 237.962375 l
473.149807 236.234375 l
474.26767 237.962375 l
475.385533 237.962375 l
476.503396 234.506375 l
477.621259 237.962375 l
478.739122 234.506375 l
480.974849 237.962375 l
482.092712 341.642375 l
483.210575 130.826375 l
484.328438 236.234375 l
485.446301 234.506375 l
486.564164 234.506375 l
487.682027 237.962375 l
488.79989 234.506375 l
489.917754 237.962375 l
491.035617 236.234375 l
492.15348 237.962375 l
493.271343 236.234375 l
494.389206 237.962375 l
495.507069 236.234375 l
496.624932 237.962375 l
497.742795 237.962375 l
498.860658 234.506375 l
499.978521 236.234375 l
501.096385 234.506375 l
503.332111 237.962375 l
505.567837 234.506375 l
507.803563 237.962375 l
508.921426 350.282375 l
510.039289 120.458375 l
511.157153 122.186375 l
512.275016 237.962375 l
513.392879 234.506375 l
514.510742 237.962375 l
515.628605 236.234375 l
516.746468 237.962375 l
517.864331 236.234375 l
518.982194 236.234375 l
520.100057 234.506375 l
521.21792 237.962375 l
522.335784 234.506375 l
523.453647 237.962375 l
524.57151 237.962375 l
525.689373 234.506375 l
527.925099 237.962375 l
530.160825 234.506375 l
532.396552 237.962375 l
533.514415 236.234375 l
536.868004 236.234375 l
537.985867 358.922375 l
539.10373 115.274375 l
540.221593 236.234375 l
542.457319 236.234375 l
543.575183 237.962375 l
545.810909 234.506375 l
548.046635 237.962375 l
549.164498 236.234375 l
550.282361 236.234375 l
551.400224 234.506375 l
552.518087 237.962375 l
553.635951 236.234375 l
554.753814 237.962375 l
555.871677 236.234375 l
556.98954 237.962375 l
558.107403 236.234375 l
559.225266 237.962375 l
560.343129 236.234375 l
561.460992 237.962375 l
562.578855 237.962375 l
563.696718 234.506375 l
564.814582 365.834375 l
565.932445 106.634375 l
567.050308 236.234375 l
568.168171 237.962375 l
570.403897 234.506375 l
571.52176 237.962375 l
572.639623 234.506375 l
574.87535 237.962375 l
575.993213 234.506375 l
577.111076 237.962375 l
578.228939 237.962375 l
579.346802 234.506375 l
580.464665 237.962375 l
581.582528 234.506375 l
582.700391 234.506375 l
583.818254 237.962375 l
584.936117 236.234375 l
586.053981 237.962375 l
587.171844 236.234375 l
588.289718 237.962375 l
589.407587 236.234375 l
590.525433 237.962375 l
591.643296 236.234375 l
592.761165 236.234375 l
593.879029 372.746375 l
594.996897 103.178375 l
596.11476 236.234375 l
598.350492 236.234375 l
599.468338 237.962375 l
600.586201 236.234375 l
601.704064 237.962375 l
602.821927 236.234375 l
605.057653 236.234375 l
606.175516 237.962375 l
608.411243 234.506375 l
609.529106 234.506375 l
610.646969 237.962375 l
611.764832 236.234375 l
612.882695 236.234375 l
614.000558 237.962375 l
615.118421 234.506375 l
616.236284 234.506375 l
617.354148 237.962375 l
618.472011 236.234375 l
619.589874 237.962375 l
620.707737 376.202375 l
621.8256 97.994375 l
622.943463 236.234375 l
624.061326 237.962375 l
625.179189 236.234375 l
626.297052 237.962375 l
627.414915 236.234375 l
629.650642 236.234375 l
630.768505 237.962375 l
631.886368 234.506375 l
633.004231 237.962375 l
634.122094 236.234375 l
635.239957 237.962375 l
636.35782 236.234375 l
637.475683 236.234375 l
638.593547 237.962375 l
639.71141 234.506375 l
641.947136 237.962375 l
643.064999 236.234375 l
644.182862 237.962375 l
645.300725 237.962375 l
646.418588 236.234375 l
647.536451 236.234375 l
648.654314 237.962375 l
649.772178 379.658375 l
650.890041 96.266375 l
652.007904 237.962375 l
653.125767 234.506375 l
655.361493 237.962375 l
656.479356 236.234375 l
657.597219 237.962375 l
658.715082 236.234375 l
659.832946 237.962375 l
660.950809 236.234375 l
663.186535 236.234375 l
664.304398 237.962375 l
665.422261 236.234375 l
666.540124 237.962375 l
667.657987 236.234375 l
668.77585 237.962375 l
669.893713 236.234375 l
671.011577 237.962375 l
672.12944 236.234375 l
673.247303 237.962375 l
674.365166 236.234375 l
675.483029 237.962375 l
676.600892 381.386375 l
677.718755 94.538375 l
678.836618 236.234375 l
683.308071 236.234375 l
684.425934 234.506375 l
685.543797 236.234375 l
686.66166 234.506375 l
687.779523 236.234375 l
688.897386 236.234375 l
690.015249 237.962375 l
691.133112 234.506375 l
692.250976 236.234375 l
698.958154 236.234375 l
700.076017 237.962375 l
702.311744 234.506375 l
703.429607 237.962375 l
704.54747 236.234375 l
705.665333 381.386375 l
706.783196 96.266375 l
707.901059 236.234375 l
709.018922 237.962375 l
710.136785 237.962375 l
711.254648 234.506375 l
713.490375 237.962375 l
715.726101 234.506375 l
716.843964 237.962375 l
717.961827 234.506375 l
720.197553 237.962375 l
721.315416 236.234375 l
722.433279 237.962375 l
723.551143 237.962375 l
724.669006 234.506375 l
726.904732 237.962375 l
728.022595 234.506375 l
729.140458 237.962375 l
730.258321 236.234375 l
731.376184 237.962375 l
732.494047 379.658375 l
733.61191 96.266375 l
734.729774 236.234375 l
735.847637 237.962375 l
738.083363 234.506375 l
739.201226 237.962375 l
740.319089 234.506375 l
742.554815 237.962375 l
743.672678 234.506375 l
744.790542 237.962375 l
745.908405 236.234375 l
747.026268 237.962375 l
748.144131 236.234375 l
749.261994 237.962375 l
750.379857 236.234375 l
751.49772 237.962375 l
752.615583 234.506375 l
753.733446 237.962375 l
754.851309 236.234375 l
755.969173 237.962375 l
758.204899 234.506375 l
759.322762 234.506375 l
760.440625 237.962375 l
760.440625 237.962375 l
stroke
grestore
0 setlinejoin
0.000 setgray
gsave
90.840625 409.034375 m
760.440625 409.034375 l
stroke
grestore
gsave
90.840625 63.434375 m
760.440625 63.434375 l
stroke
grestore
gsave
760.440625 63.434375 m
760.440625 409.034375 l
stroke
grestore
gsave
90.840625 63.434375 m
90.840625 409.034375 l
stroke
grestore
0.500 setlinewidth
1 setlinejoin
0 setlinecap
[1 3] 0 setdash
gsave
669.6 345.6 90.84 63.43 clipbox
146.73378 63.434375 m
146.73378 409.034375 l
stroke
grestore
[] 0 setdash
gsave
/o {
gsave
newpath
translate
0.5 setlinewidth
1 setlinejoin
0 setlinecap
0 0 m
0 4 l

gsave
0.000 setgray
fill
grestore
stroke
grestore
} bind def
146.734 63.4344 o
grestore
gsave
/o {
gsave
newpath
translate
0.5 setlinewidth
1 setlinejoin
0 setlinecap
0 0 m
0 -4 l

gsave
0.000 setgray
fill
grestore
stroke
grestore
} bind def
146.734 409.034 o
grestore
/BitstreamVeraSans-Roman findfont
24.000 scalefont
setfont
gsave
113.780655 41.200000 translate
0.000000 rotate
0.000000 0.000000 m /minus glyphshow
20.109375 0.000000 m /eight glyphshow
35.378906 0.000000 m /zero glyphshow
50.648438 0.000000 m /zero glyphshow
grestore
[1 3] 0 setdash
gsave
669.6 345.6 90.84 63.43 clipbox
258.520091 63.434375 m
258.520091 409.034375 l
stroke
grestore
[] 0 setdash
gsave
/o {
gsave
newpath
translate
0.5 setlinewidth
1 setlinejoin
0 setlinecap
0 0 m
0 4 l

gsave
0.000 setgray
fill
grestore
stroke
grestore
} bind def
258.52 63.4344 o
grestore
gsave
/o {
gsave
newpath
translate
0.5 setlinewidth
1 setlinejoin
0 setlinecap
0 0 m
0 -4 l

gsave
0.000 setgray
fill
grestore
stroke
grestore
} bind def
258.52 409.034 o
grestore
gsave
225.566966 41.200000 translate
0.000000 rotate
0.000000 0.000000 m /minus glyphshow
20.109375 0.000000 m /six glyphshow
35.378906 0.000000 m /zero glyphshow
50.648438 0.000000 m /zero glyphshow
grestore
[1 3] 0 setdash
gsave
669.6 345.6 90.84 63.43 clipbox
370.306401 63.434375 m
370.306401 409.034375 l
stroke
grestore
[] 0 setdash
gsave
/o {
gsave
newpath
translate
0.5 setlinewidth
1 setlinejoin
0 setlinecap
0 0 m
0 4 l

gsave
0.000 setgray
fill
grestore
stroke
grestore
} bind def
370.306 63.4344 o
grestore
gsave
/o {
gsave
newpath
translate
0.5 setlinewidth
1 setlinejoin
0 setlinecap
0 0 m
0 -4 l

gsave
0.000 setgray
fill
grestore
stroke
grestore
} bind def
370.306 409.034 o
grestore
gsave
337.353276 41.200000 translate
0.000000 rotate
0.000000 0.000000 m /minus glyphshow
20.109375 0.000000 m /four glyphshow
35.378906 0.000000 m /zero glyphshow
50.648438 0.000000 m /zero glyphshow
grestore
[1 3] 0 setdash
gsave
669.6 345.6 90.84 63.43 clipbox
482.092712 63.434375 m
482.092712 409.034375 l
stroke
grestore
[] 0 setdash
gsave
/o {
gsave
newpath
translate
0.5 setlinewidth
1 setlinejoin
0 setlinecap
0 0 m
0 4 l

gsave
0.000 setgray
fill
grestore
stroke
grestore
} bind def
482.093 63.4344 o
grestore
gsave
/o {
gsave
newpath
translate
0.5 setlinewidth
1 setlinejoin
0 setlinecap
0 0 m
0 -4 l

gsave
0.000 setgray
fill
grestore
stroke
grestore
} bind def
482.093 409.034 o
grestore
gsave
449.139587 41.200000 translate
0.000000 rotate
0.000000 0.000000 m /minus glyphshow
20.109375 0.000000 m /two glyphshow
35.378906 0.000000 m /zero glyphshow
50.648438 0.000000 m /zero glyphshow
grestore
[1 3] 0 setdash
gsave
669.6 345.6 90.84 63.43 clipbox
593.879022 63.434375 m
593.879022 409.034375 l
stroke
grestore
[] 0 setdash
gsave
/o {
gsave
newpath
translate
0.5 setlinewidth
1 setlinejoin
0 setlinecap
0 0 m
0 4 l

gsave
0.000 setgray
fill
grestore
stroke
grestore
} bind def
593.879 63.4344 o
grestore
gsave
/o {
gsave
newpath
translate
0.5 setlinewidth
1 setlinejoin
0 setlinecap
0 0 m
0 -4 l

gsave
0.000 setgray
fill
grestore
stroke
grestore
} bind def
593.879 409.034 o
grestore
gsave
586.246210 41.200000 translate
0.000000 rotate
0.000000 0.000000 m /zero glyphshow
grestore
[1 3] 0 setdash
gsave
669.6 345.6 90.84 63.43 clipbox
705.665333 63.434375 m
705.665333 409.034375 l
stroke
grestore
[] 0 setdash
gsave
/o {
gsave
newpath
translate
0.5 setlinewidth
1 setlinejoin
0 setlinecap
0 0 m
0 4 l

gsave
0.000 setgray
fill
grestore
stroke
grestore
} bind def
705.665 63.4344 o
grestore
gsave
/o {
gsave
newpath
translate
0.5 setlinewidth
1 setlinejoin
0 setlinecap
0 0 m
0 -4 l

gsave
0.000 setgray
fill
grestore
stroke
grestore
} bind def
705.665 409.034 o
grestore
gsave
682.766895 41.200000 translate
0.000000 rotate
0.000000 0.000000 m /two glyphshow
15.269531 0.000000 m /zero glyphshow
30.539062 0.000000 m /zero glyphshow
grestore
gsave
354.640625 12.200000 translate
0.000000 rotate
/BitstreamVeraSans-Roman findfont
24.0 scalefont
setfont
0.000000 0.765625 moveto
/T glyphshow

14.660156 0.765625 moveto
/e glyphshow

29.425781 0.765625 moveto
/m glyphshow

52.804688 0.765625 moveto
/p glyphshow

68.039062 0.765625 moveto
/o glyphshow

82.722656 0.765625 moveto
/space glyphshow

90.351562 0.765625 moveto
/bracketleft glyphshow

/Cmmi10 findfont
24.0 scalefont
setfont
99.714844 0.765625 moveto
/m glyphshow

120.785156 0.765625 moveto
/s glyphshow

/BitstreamVeraSans-Roman findfont
24.0 scalefont
setfont
132.011719 0.765625 moveto
/bracketright glyphshow


grestore
[1 3] 0 setdash
gsave
669.6 345.6 90.84 63.43 clipbox
90.840625 63.434375 m
760.440625 63.434375 l
stroke
grestore
[] 0 setdash
gsave
/o {
gsave
newpath
translate
0.5 setlinewidth
1 setlinejoin
0 setlinecap
0 0 m
4 0 l

gsave
0.000 setgray
fill
grestore
stroke
grestore
} bind def
90.8406 63.4344 o
grestore
gsave
/o {
gsave
newpath
translate
0.5 setlinewidth
1 setlinejoin
0 setlinecap
0 0 m
-4 0 l

gsave
0.000 setgray
fill
grestore
stroke
grestore
} bind def
760.441 63.4344 o
grestore
gsave
36.200000 56.817187 translate
0.000000 rotate
0.000000 0.000000 m /minus glyphshow
20.109375 0.000000 m /four glyphshow
35.378906 0.000000 m /zero glyphshow
grestore
[1 3] 0 setdash
gsave
669.6 345.6 90.84 63.43 clipbox
90.840625 106.634375 m
760.440625 106.634375 l
stroke
grestore
[] 0 setdash
gsave
/o {
gsave
newpath
translate
0.5 setlinewidth
1 setlinejoin
0 setlinecap
0 0 m
4 0 l

gsave
0.000 setgray
fill
grestore
stroke
grestore
} bind def
90.8406 106.634 o
grestore
gsave
/o {
gsave
newpath
translate
0.5 setlinewidth
1 setlinejoin
0 setlinecap
0 0 m
-4 0 l

gsave
0.000 setgray
fill
grestore
stroke
grestore
} bind def
760.441 106.634 o
grestore
gsave
36.200000 100.017187 translate
0.000000 rotate
0.000000 0.000000 m /minus glyphshow
20.109375 0.000000 m /three glyphshow
35.378906 0.000000 m /zero glyphshow
grestore
[1 3] 0 setdash
gsave
669.6 345.6 90.84 63.43 clipbox
90.840625 149.834375 m
760.440625 149.834375 l
stroke
grestore
[] 0 setdash
gsave
/o {
gsave
newpath
translate
0.5 setlinewidth
1 setlinejoin
0 setlinecap
0 0 m
4 0 l

gsave
0.000 setgray
fill
grestore
stroke
grestore
} bind def
90.8406 149.834 o
grestore
gsave
/o {
gsave
newpath
translate
0.5 setlinewidth
1 setlinejoin
0 setlinecap
0 0 m
-4 0 l

gsave
0.000 setgray
fill
grestore
stroke
grestore
} bind def
760.441 149.834 o
grestore
gsave
36.200000 143.217187 translate
0.000000 rotate
0.000000 0.000000 m /minus glyphshow
20.109375 0.000000 m /two glyphshow
35.378906 0.000000 m /zero glyphshow
grestore
[1 3] 0 setdash
gsave
669.6 345.6 90.84 63.43 clipbox
90.840625 193.034375 m
760.440625 193.034375 l
stroke
grestore
[] 0 setdash
gsave
/o {
gsave
newpath
translate
0.5 setlinewidth
1 setlinejoin
0 setlinecap
0 0 m
4 0 l

gsave
0.000 setgray
fill
grestore
stroke
grestore
} bind def
90.8406 193.034 o
grestore
gsave
/o {
gsave
newpath
translate
0.5 setlinewidth
1 setlinejoin
0 setlinecap
0 0 m
-4 0 l

gsave
0.000 setgray
fill
grestore
stroke
grestore
} bind def
760.441 193.034 o
grestore
gsave
36.200000 186.417188 translate
0.000000 rotate
0.000000 0.000000 m /minus glyphshow
20.109375 0.000000 m /one glyphshow
35.378906 0.000000 m /zero glyphshow
grestore
[1 3] 0 setdash
gsave
669.6 345.6 90.84 63.43 clipbox
90.840625 236.234375 m
760.440625 236.234375 l
stroke
grestore
[] 0 setdash
gsave
/o {
gsave
newpath
translate
0.5 setlinewidth
1 setlinejoin
0 setlinecap
0 0 m
4 0 l

gsave
0.000 setgray
fill
grestore
stroke
grestore
} bind def
90.8406 236.234 o
grestore
gsave
/o {
gsave
newpath
translate
0.5 setlinewidth
1 setlinejoin
0 setlinecap
0 0 m
-4 0 l

gsave
0.000 setgray
fill
grestore
stroke
grestore
} bind def
760.441 236.234 o
grestore
gsave
71.575000 229.617188 translate
0.000000 rotate
0.000000 0.000000 m /zero glyphshow
grestore
[1 3] 0 setdash
gsave
669.6 345.6 90.84 63.43 clipbox
90.840625 279.434375 m
760.440625 279.434375 l
stroke
grestore
[] 0 setdash
gsave
/o {
gsave
newpath
translate
0.5 setlinewidth
1 setlinejoin
0 setlinecap
0 0 m
4 0 l

gsave
0.000 setgray
fill
grestore
stroke
grestore
} bind def
90.8406 279.434 o
grestore
gsave
/o {
gsave
newpath
translate
0.5 setlinewidth
1 setlinejoin
0 setlinecap
0 0 m
-4 0 l

gsave
0.000 setgray
fill
grestore
stroke
grestore
} bind def
760.441 279.434 o
grestore
gsave
56.309375 272.817187 translate
0.000000 rotate
0.000000 0.000000 m /one glyphshow
15.269531 0.000000 m /zero glyphshow
grestore
[1 3] 0 setdash
gsave
669.6 345.6 90.84 63.43 clipbox
90.840625 322.634375 m
760.440625 322.634375 l
stroke
grestore
[] 0 setdash
gsave
/o {
gsave
newpath
translate
0.5 setlinewidth
1 setlinejoin
0 setlinecap
0 0 m
4 0 l

gsave
0.000 setgray
fill
grestore
stroke
grestore
} bind def
90.8406 322.634 o
grestore
gsave
/o {
gsave
newpath
translate
0.5 setlinewidth
1 setlinejoin
0 setlinecap
0 0 m
-4 0 l

gsave
0.000 setgray
fill
grestore
stroke
grestore
} bind def
760.441 322.634 o
grestore
gsave
56.309375 316.017187 translate
0.000000 rotate
0.000000 0.000000 m /two glyphshow
15.269531 0.000000 m /zero glyphshow
grestore
[1 3] 0 setdash
gsave
669.6 345.6 90.84 63.43 clipbox
90.840625 365.834375 m
760.440625 365.834375 l
stroke
grestore
[] 0 setdash
gsave
/o {
gsave
newpath
translate
0.5 setlinewidth
1 setlinejoin
0 setlinecap
0 0 m
4 0 l

gsave
0.000 setgray
fill
grestore
stroke
grestore
} bind def
90.8406 365.834 o
grestore
gsave
/o {
gsave
newpath
translate
0.5 setlinewidth
1 setlinejoin
0 setlinecap
0 0 m
-4 0 l

gsave
0.000 setgray
fill
grestore
stroke
grestore
} bind def
760.441 365.834 o
grestore
gsave
56.309375 359.217188 translate
0.000000 rotate
0.000000 0.000000 m /three glyphshow
15.269531 0.000000 m /zero glyphshow
grestore
[1 3] 0 setdash
gsave
669.6 345.6 90.84 63.43 clipbox
90.840625 409.034375 m
760.440625 409.034375 l
stroke
grestore
[] 0 setdash
gsave
/o {
gsave
newpath
translate
0.5 setlinewidth
1 setlinejoin
0 setlinecap
0 0 m
4 0 l

gsave
0.000 setgray
fill
grestore
stroke
grestore
} bind def
90.8406 409.034 o
grestore
gsave
/o {
gsave
newpath
translate
0.5 setlinewidth
1 setlinejoin
0 setlinecap
0 0 m
-4 0 l

gsave
0.000 setgray
fill
grestore
stroke
grestore
} bind def
760.441 409.034 o
grestore
gsave
56.309375 402.417188 translate
0.000000 rotate
0.000000 0.000000 m /four glyphshow
15.269531 0.000000 m /zero glyphshow
grestore
gsave
26.200000 154.234375 translate
90.000000 rotate
/BitstreamVeraSans-Roman findfont
24.0 scalefont
setfont
0.000000 0.765625 moveto
/A glyphshow

16.417969 0.765625 moveto
/m glyphshow

39.796875 0.765625 moveto
/p glyphshow

55.031250 0.765625 moveto
/l glyphshow

61.699219 0.765625 moveto
/i glyphshow

68.367188 0.765625 moveto
/t glyphshow

77.777344 0.765625 moveto
/u glyphshow

92.988281 0.765625 moveto
/d glyphshow

108.222656 0.765625 moveto
/e glyphshow

122.988281 0.765625 moveto
/space glyphshow

130.617188 0.765625 moveto
/bracketleft glyphshow

/Cmmi10 findfont
24.0 scalefont
setfont
139.980469 0.765625 moveto
/V glyphshow

/BitstreamVeraSans-Roman findfont
24.0 scalefont
setfont
153.972656 0.765625 moveto
/bracketright glyphshow


grestore
/BitstreamVeraSans-Roman findfont
28.800 scalefont
setfont
gsave
298.500000 414.034375 translate
0.000000 rotate
0.000000 0.000000 m /R glyphshow
20.008759 0.000000 m /a glyphshow
37.655273 0.000000 m /m glyphshow
65.706909 0.000000 m /p glyphshow
83.986176 0.000000 m /a glyphshow
101.632690 0.000000 m /space glyphshow
110.786377 0.000000 m /d glyphshow
129.065643 0.000000 m /e glyphshow
146.782471 0.000000 m /space glyphshow
155.936157 0.000000 m /S glyphshow
174.215424 0.000000 m /u glyphshow
192.466568 0.000000 m /b glyphshow
210.745834 0.000000 m /i glyphshow
218.746521 0.000000 m /d glyphshow
237.025787 0.000000 m /a glyphshow
grestore

end
showpage
